АК|2|217|аудитория|36,90|учебная аудитория|-|аудитория|
АК|2|220|прочее|36|учебная аудитория|-|аудитория|
АК|2|221|прочее|52,40|учебная аудитория|-|аудитория|45
АК|2|218а|кабинет|36,3|учебная аудитория|-|аудитория|
АК|2|218б|аудитория|36,10|учебная аудитория|-|аудитория|
АК|3|312|кабинет|35,20|учебная аудитория|-|аудитория|
АК|3|313|аудитория|36,00|учебная аудитория|-|аудитория|
АК|3|315|аудитория|35,10|учебная аудитория|-|аудитория|
АК|3|316|аудитория|36,1|учебная аудитория|-|аудитория|25
АК|3|318|кабинет|39,70|учебная аудитория|ИУПСиБК|аудитория|25
АК|3|322|кабинет|54,50|копьютерная лаборатория|ИГУиП|аудитория|22
АК|3|323|аудитория|54,10|учебная аудитория|ИУПСиБК|аудитория|25
АК|3|325|аудитория|73,3|учебная аудитория|-|аудитория|
АК|3|327|кабинет|53,80|компьютерный класс|ИУПСиБК|аудитория|20
АК|3|328|прочее|55,60|учебная аудитория|-|аудитория|40
АК|4|403|лаборатория|34,30|лаборатория криминалистики|ИГУиП|аудитория|25
АК|4|409|лаборатория|54,90|учебная аудитория|-|аудитория|30
АК|4|410|аудитория|54,30|учебная аудитория|-|аудитория|32
АК|4|412|кабинет учебный|54,8|учебная аудитория|-|аудитория|33
АК|4|413|исп.не по назн.|36,60|учебная аудитория|ИОМ|аудитория|50
АК|4|414|кабинет|39,20|учебная аудитория|-|аудитория|24
АК|4|415|аудитория|73,80|учебная аудитория|ИОМ|аудитория|40
АК|4|416|кабинет учебный|54,80|учебная аудитория|-|аудитория|21
АК|4|418|аудитория|54,40|учебная аудитория|-|аудитория|30
АК|4|419|аудитория|36,50|учебная аудитория|-|аудитория|25
АК|4|420|аудитория|91,5|учебная аудитория|-|аудитория|56
АК|5|510|аудитория|73,60|учебная аудитория|ИМ|аудитория|50
АК|5|511|аудитория|36,10|учебная аудитория|ИМ|аудитория|25
АК|5|512|аудитория|72,80|учебная аудитория|ИМ|аудитория|75
АК|5|513|аудитория|35,30|учебная аудитория|ИМ|аудитория|25
АК|5|514|аудитория|58,10|учебная аудитория|ИМ|аудитория|50
АК|5|516|аудитория|91,10|учебная аудитория|ИМ|аудитория|75
БЦ|1|113|аудитория|83,7|учебная аудитория|-|аудитория|40
БЦ|1|114|аудитория|87,90|учебная аудитория|-|аудитория|40
БЦ|1|115|компьютерная|196,50|учебная аудитория|-|аудитория|90
БЦ|1|122|аудитория|84,8|учебная аудитория|-|аудитория|40
БЦ|1|123|аудитория|86,60|учебная аудитория|-|аудитория|40
БЦ|2|204|аудитория|53,00|учебная аудитория|-|аудитория|30
БЦ|2|208|аудитория|79,40|учебная аудитория|-|аудитория|50
БЦ|2|209|аудитория|79,70|учебная аудитория|-|аудитория|50
БЦ|2|210|аудитория|79,6|учебная аудитория|-|аудитория|40
БЦ|2|211|аудитория|107,30|учебная аудитория|-|аудитория|50
БЦ|2|217|компьютерная|96,80|учебная аудитория|-|аудитория|50
БЦ|2|218|аудитория|79,20|учебная аудитория|-|аудитория|15
БЦ|2|220|аудитория|79,40|учебная аудитория|-|аудитория|50
БЦ|2|221|аудитория|79,4|учебная аудитория|-|аудитория|50
БЦ|2|222|аудитория|79,10|учебная аудитория|-|аудитория|40
БЦ|2|223|аудитория|107,80|учебная аудитория|-|аудитория|20
БЦ|3|304|аудитория|58,5|учебная аудитория|-|аудитория|40
БЦ|3|306|аудитория|58,90|учебная аудитория|-|аудитория|40
БЦ|3|308|аудитория|59,00|учебная аудитория|-|аудитория|40
БЦ|3|310|аудитория|59,00|учебная аудитория|-|аудитория|44
БЦ|3|312|кабинет|108|учебная аудитория|-|аудитория|50
БЦ|3|314|компьютерная|80,30|учебная аудитория|-|аудитория|27
БЦ|3|316|компьютерная|59,30|учебная аудитория|-|аудитория|40
БЦ|3|317|аудитория|37,9|учебная аудитория|-|аудитория|40
БЦ|3|318|компьютерная|56,90|учебная аудитория|-|аудитория|40
БЦ|3|319|аудитория|37,20|учебная аудитория|-|аудитория|24
БЦ|3|320|компьютерная|58,50|учебная аудитория|-|аудитория|40
БЦ|3|321|компьютерная|36,2|учебная аудитория|-|аудитория|24
БЦ|3|322|кабинет|59,40|учебная аудитория|-|аудитория|50
БЦ|3|323|компьютерная|25,90|учебная аудитория|-|аудитория|24
БЦ|3|324|кабинет|108,50|учебная аудитория|-|аудитория|50
БЦ|ц|17|библиотека|135,60|учебная аудитория|-|аудитория|21
БЦ|ц|18|класс|154,20|компьютерный класс|ИИС|аудитория|33
БЦ|ц|21|класс|53,30|учебная аудитория|-|аудитория|33
БЦ|ц|35|класс|111,80|учебная аудитория|-|аудитория|23
ГУК|1|118|аудитория|78,6|учебная аудитория|-|аудитория|40
ГУК|1|141|кабинет|50,70|учебная аудитория|-|аудитория|36
ГУК|2|207|кабинет|36,6|учебная аудитория|-|аудитория|
ГУК|2|209|кабинет|55,00|компьютерный класс|ИЭФ|аудитория|3
ГУК|2|209|кабинет|26,10|компьютерный класс|ИЭФ|аудитория|1
ГУК|2|209|коридор|8,90|компьютерный класс|ИЭФ|аудитория|
ГУК|2|211|кабинет|37,00|учебная аудитория|-|аудитория|
ГУК|2|213|кабинет|35,6|учебная аудитория|-|аудитория|
ГУК|2|220|аудитория|108,90|учебная аудитория|-|аудитория|100
ГУК|2|222|аудитория|18,8|учебная аудитория|-|аудитория|18
ГУК|2|223|кабинет|37,20|учебная аудитория|-|аудитория|34
ГУК|2|224|аудитория|112,50|учебная аудитория|-|аудитория|100
ГУК|2|225|кабинет|37,9|учебная аудитория|-|аудитория|32
ГУК|2|227|кабинет|52,10|учебная аудитория|-|аудитория|30
ГУК|2|228|аудитория|109,60|учебная аудитория|РГФМ|аудитория|
ГУК|2|229|кабинет|57,2|учебная аудитория|-|аудитория|30
ГУК|2|232|аудитория|108,9|учебная аудитория|-|аудитория|100
ГУК|2|233|аудитория|41,60|учебная аудитория|РГФМ|аудитория|
ГУК|2|235|аудитория|37,50|учебная аудитория|РГФМ|аудитория|
ГУК|3|302|кабинет|70,10|учебная аудитория||аудитория|
ГУК|3|309|кабинет|54,50|компьютерный класс|ИЭФ|аудитория|21
ГУК|3|313|кабинет|35,3|учебная аудитория|-|аудитория|30
ГУК|3|318|кабинет|35,6|учебная аудитория|-|аудитория|
ГУК|3|322|кабинет|110,20|учебная аудитория|-|аудитория|
ГУК|3|323|кабинет|37,40|учебная аудитория|-|аудитория|32
ГУК|3|324|кабинет|18,8|учебная аудитория|-|аудитория|
ГУК|3|325|кабинет|37,7|учебная аудитория|-|аудитория|32
ГУК|3|326|кабинет|107,50|учебная аудитория|-|аудитория|
ГУК|3|327|кабинет|51,70|учебная аудитория|-|аудитория|34
ГУК|3|328|кабинет|19,1|учебная аудитория|-|аудитория|18
ГУК|3|330|кабинет|108,60|учебная аудитория|-|аудитория|
ГУК|3|332|кабинет|19,1|учебная аудитория|-|аудитория|
ГУК|3|333|кабинет|37,6|учебная аудитория|-|аудитория|34
ГУК|3|334|кабинет|109,80|учебная аудитория|-|аудитория|
ГУК|3|335|кабинет|37,60|учебная аудитория|-|аудитория|36
ГУК|3|337|кабинет|18,2|учебная аудитория|-|аудитория|18
ГУК|3|339|кабинет|53,00|учебная аудитория|-|аудитория|32
ГУК|3|341|кабинет|37,6|учебная аудитория|-|аудитория|34
ГУК|3|309а|кабинет|35,10|компьютерный класс|ИЭФ|аудитория|5
ГУК|4|407|кабинет|56,1|учебная аудитория|-|аудитория|40
ГУК|4|408|кабинет|55,40|учебная аудитория|ИУПСиБК|аудитория|
ГУК|4|409|кабинет|54,50|учебная аудитория|-|аудитория|60
ГУК|4|410|кабинет|18,70|учебная аудитория|-|аудитория|
ГУК|4|411|кабинет|36,5|учебная аудитория|-|аудитория|32
ГУК|4|412|кабинет|74,2|учебная аудитория|-|аудитория|
ГУК|4|413|кабинет|34,80|учебная аудитория|-|аудитория|60
ГУК|4|414|кабинет|52,70|учебная аудитория|-|аудитория|
ГУК|4|416|кабинет|19|учебная аудитория|-|аудитория|
ГУК|4|417|кабинет|33,8|учебная аудитория|-|аудитория|35
ГУК|4|423|кабинет|37,20|учебная аудитория|-|аудитория|32
ГУК|4|425|кабинет|37,70|видеокласс|ИУПСиБК|аудитория|20
ГУК|4|441|кабинет|37,70|учебная аудитория|-|аудитория|30
ГУК|4|443|кабинет|37,1|учебная аудитория|-|аудитория|30
ГУК|4|445|кабинет|71,40|учебная аудитория|-|аудитория|60
ГУК|4|447|кабинет|15,1|учебная аудитория|-|аудитория|15
ГУК|4|448|кабинет|17,80|учебная аудитория|-|аудитория|18
ГУК|4|450|кабинет|34,3|учебная аудитория|-|аудитория|35
ГУК|4|451|аудитория|150,10|учебная аудитория|-|аудитория|77
ГУК|5|509|кабинет|59,00|Компьютерный класс|ИИС|аудитория|20
ГУК|5|513|аудитория|39,70|Компьютерный класс|ИИС|аудитория|10
ГУК|5||аудитория|131,9|учебная аудитория|-|аудитория|100
ГУК|5||аудитория|132,30|учебная аудитория|-|аудитория|100
ГУК|5||аудитория|132,7|учебная аудитория|-|аудитория|100
ГУК|5||аудитория|133,10|учебная аудитория|-|аудитория|100
ГУК|6|604|кабинет|92,50|учебная аудитория|-|аудитория|60
ГУК|6|605|кабинет|37,2|учебная аудитория||аудитория|30
ГУК|6|608|кабинет|94,3|учебная аудитория|-|аудитория|80
ГУК|6|621|кабинет|94,30|учебная аудитория||аудитория|90
ГУК|8|802|зал актовый|131,6|учебная аудитория||аудитория|90
ГУК|8|804|зал актовый|131,70|учебная аудитория|-|аудитория|90
ГУК|8|807|зал актовый|96,7|учебная аудитория|-|аудитория|90
ГУК|8|804а|зал актовый|83,7|учебная аудитория|-|аудитория|40
ГУК|П||кабинет|23,40|учебная аудитория|ЦДИ|аудитория|
ГУК|П||кабинет|25,20|учебная аудитория|ЦДИ|аудитория|
ГУК|П||кабинет|94,70|учебная аудитория|ЦДИ|аудитория|
ГУК|П||кабинет|30,90|учебная аудитория|ЦДИ|аудитория|
ГУК|П||кабинет|72,90|учебная аудитория|ЦДИ|аудитория|
ЛК|1|101|класс|72,40|компьютерный класс|ЦНИТ|аудитория|20
ЛК|1|102|лаборатория|71,60|компьютерный класс|ЦНИТ|аудитория|20
ЛК|1|107|кабинет|68,20|компьютерный класс|ЦНИТ|аудитория|20
ЛК|1|108|кбинет админист|68,70|компьютерный класс|ЦНИТ|аудитория|20
ЛК|1|110|кабинет|68,10|компьютерный класс|ЦНИТ|аудитория|20
ЛК|1|114|кабинет|67,90|компьютерный класс|ЦНИТ|аудитория|19
ЛК|1|116|класс|52,30|компьютерный класс|ЦНИТ|аудитория|5
ЛК|1|117|кабинет|69,00|компьютерный класс|ЦНИТ|аудитория|20
ЛК|1|122|кабинет|67,40|компьютерный класс|ЦНИТ|аудитория|20
ЛК|1|122|кабинет|15,10|компьютерный класс|ЦНИТ|аудитория|
ЛК|2|209|кабинет|51,50|учебная аудитория|ИОО|аудитория|30
ЛК|2|211|кабинет|71,60|учебная аудитория|ИОО|аудитория|50
ЛК|2|212|кабинет|33,00|компьютерный класс|ИОО|аудитория|18
ЛК|2|214|кабинет|51,70|учебная аудитория|ИОО|аудитория|50
ЛК|2|217|кабинет|33,70|доцентская каф. ДиДОУ|ИИС|аудитория|25
ЛК|2|218|кабинет|122,60|учебная аудитория|ИОО|аудитория|100
ЛК|2|219|кабинет|16,20|учебная аудитория|ИИС|аудитория|3
ЛК|2|223|лаборатория|68,10|учебная аудитория|ИИС|аудитория|50
ЛК|2|226|класс|51,50|компьютерный класс|ИИС|аудитория|16
ЛК|2|232|зал лекционный|51,30|компьютерный класс|ИИС|аудитория|18
ЛК|2|236|лаборатория|33,70|компьютерный класс|ИИС|аудитория|19
ЛК|2|236|лаборатория|16,80|компьютерный класс|ИИС|аудитория|19
ЛК|2|201/1|прочее|17,50|кабинет, учебная аудитория (4 чел.)|ИОО|аудитория|1
ЛК|3|301|аудитория|36,80|учебная аудитория|-|аудитория|25
ЛК|3|302|кабинет учебный|54,50|учебная аудитория|-|аудитория|15
ЛК|3|307|аудитория|33,7|учебная аудитория|-|аудитория|28
ЛК|3|308|класс|35,50|Кафедра экономики труда персонала|ИУПСиБК|аудитория|
ЛК|3|311|класс|67,60|учебная аудитория|ИУПСиБК|аудитория|50
ЛК|3|315|аудитория|50,70|учебная аудитория|-|аудитория|44
ЛК|3|320|аудитория|34,90|учебная аудитория|ИИС|аудитория|10
ЛК|3|320|аудитория|34,00|учебная аудитория|ИИС|аудитория|
ЛК|3|321|аудитория|85,2|учебная аудитория|-|аудитория|50
ЛК|3|328|кабинет|51,10|межкафедральная учебная лаборатория выч. техники|ИУПСиБК|аудитория|16
ЛК|4|402|лаборатория|52,90|учебная аудитория|ИОМ|аудитория|50
ЛК|4|407|кабинет|50,50|учебная аудитория|ИОМ|аудитория|16
ЛК|4|408|лаборатория|67,00|учебная аудитория|ИОМ|аудитория|40
ЛК|4|411|аудитория|83,6|учебная аудитория|-|аудитория|50
ЛК|4|412|кабинет учебный|33,70|учебная аудитория|ИОМ|аудитория|25
ЛК|4|415|кабинет|44,90|учебная аудитория|-|аудитория|40
ЛК|4|416|кабинет|16,20|учебная аудитория|ИОМ|аудитория|4
ЛК|4|416|класс|51,50|учебная аудитория|ИОМ|аудитория|25
ЛК|4|418|аудитория|87,70|учебная аудитория|ИОМ|аудитория|50
ЛК|4|421|аудитория|69,3|учебная аудитория|-|аудитория|50
ЛК|4|436|аудитория|34,20|учебная аудитория|ИУПСиБК|аудитория|25
ЛК|5|501|кабинет учебный|54,00|учебная аудитория|ИОМ|аудитория|15
ЛК|5|504|кабинет|68,90|учебная аудитория|-|аудитория|50
ЛК|5|507|кабинет учебный|49,6|учебная аудитория|-|аудитория|30
ЛК|5|508|класс|51,00|учебная аудитория|ИОМ|аудитория|30
ЛК|5|509|кабинет учебный|69,00|учебная аудитория|ИОМ|аудитория|50
ЛК|5|514|аудитория|66,30|учебная аудитория|ИОМ|аудитория|40
ЛК|5|519|кабинет|51,10|учебная аудитория|ИИС|аудитория|25
ЛК|5|523|класс|51,20|учебная аудитория|-|аудитория|30
ЛК|5|525|аудитория|70,1|учебная аудитория|-|аудитория|50
ЛК|5|528|класс|51,10|учебная аудитория|ИУПСиБК|аудитория|22
ЛК|5|536|аудитория|51,60|учебная аудитория|ИУПСиБК|аудитория|30
ЛК|5|538|аудитория|34,60|учебная аудитория|-|аудитория|26
ЛК|5|507а|исп.не по назн.|38,60|учебная аудитория|ИОМ|аудитория|40
ЛК|6|601|аудитория|33,90|учебная аудитория|-|аудитория|25
ЛК|6|602|аудитория|70,5|учебная аудитория|-|аудитория|50
ЛК|6|603|аудитория|36,9|учебная аудитория|-|аудитория|25
ЛК|6|604|аудитория|17,80|учебная аудитория|-|аудитория|15
ЛК|6|605|аудитория|18,40|учебная аудитория|ИИЯиЛКвУ|аудитория|10
ЛК|6|606|аудитория|18,8|учебная аудитория|-|аудитория|15
ЛК|6|607|аудитория|37,40|учебная аудитория|ИИЯиЛКвУ|аудитория|25
ЛК|6|608|аудитория|18,30|учебная аудитория|ИИЯиЛКвУ|аудитория|10
ЛК|6|609|кабинет|36,50|учебная аудитория|ИИЯиЛКвУ|аудитория|25
ЛК|6|610|аудитория|18,40|учебная аудитория|ИИЯиЛКвУ|аудитория|10
ЛК|6|611|аудитория|18,40|учебная аудитория|ИИЯиЛКвУ|аудитория|10
ЛК|6|612|аудитория|18,50|учебная аудитория|ИИЯиЛКвУ|аудитория|10
ЛК|6|613|аудитория|18,40|учебная аудитория|ИИЯиЛКвУ|аудитория|10
ЛК|6|614|аудитория|34,70|учебная аудитория|ИИЯиЛКвУ|аудитория|25
ЛК|6|615|аудитория|17,40|учебная аудитория|ИИЯиЛКвУ|аудитория|10
ЛК|6|617|аудитория|18,40|учебная аудитория|ИИЯиЛКвУ|аудитория|10
ЛК|6|618|аудитория|18,90|учебная аудитория|ИИЯиЛКвУ|аудитория|10
ЛК|6|619|аудитория|17,60|учебная аудитория|ИИЯиЛКвУ|аудитория|10
ЛК|6|620|аудитория|35,20|учебная аудитория|ИИЯиЛКвУ|аудитория|25
ЛК|6|621|аудитория|17,9|учебная аудитория|ИИЯиЛКвУ|аудитория|10
ЛК|6|622|аудитория|17,80|учебная аудитория|ИИЯиЛКвУ|аудитория|10
ЛК|6|623|кабинет|32,80|учебная аудитория|ИИЯиЛКвУ|аудитория|25
ЛК|6|624|аудитория|18,40|учебная аудитория|ИИЯиЛКвУ|аудитория|10
ЛК|6|626|аудитория|32,8|учебная аудитория|ИИЯиЛКвУ|аудитория|25
ЛК|6|629|приемная|16,90|учебная аудитория|ИИЯиЛКвУ|аудитория|10
ЛК|6|632|кабинет|16,70|учебная аудитория|ИИЯиЛКвУ|аудитория|10
ЛК|6|635|приемная|18,20|учебная аудитория|ИИЯиЛКвУ|аудитория|15
ЛК|6|636|аудитория|17,00|учебная аудитория|ИИЯиЛКвУ|аудитория|10
ЛК|6|637|аудитория|18,30|учебная аудитория|ИИЯиЛКвУ|аудитория|13
ЛК|6|638|компьютерная|36,00|учебная аудитория|ИИЯиЛКвУ|аудитория|25
ЛК|6|639|кабинет|16,70|учебная аудитория|-|аудитория|10
ЛК|6|641|аудитория|53,9|учебная аудитория|ИИЯиЛКвУ|аудитория|40
ЛК|6|644|аудитория|18,20|учебная аудитория|ИИЯиЛКвУ|аудитория|10
ПА|1|11|аудитория|216,90|учебная аудитория|-|аудитория|200
ПА|1|12|аудитория|108,30|учебная аудитория|-|аудитория|100
ПА|1|13|аудитория|217|учебная аудитория|-|аудитория|200
ПА|1|17|зал конференций|54,2|учебная аудитория|-|аудитория|40
ПА|1|18|зал конференций|54,70|учебная аудитория|-|аудитория|40
ПА|1|14|аудитория|106,60|учебная аудитория|-|аудитория|100
ПА|1|15|аудитория|221,90|учебная аудитория|-|аудитория|200
ПА|2|21|аудитория|203,80|учебная аудитория|-|аудитория|200
ПА|2|22|аудитория|109|учебная аудитория|-|аудитория|100
ПА|2|23|аудитория|216,8|учебная аудитория|-|аудитория|200
ПА|2|24|аудитория|105,00|учебная аудитория|-|аудитория|100
ПА|2|25|аудитория|222,20|учебная аудитория|-|аудитория|180
