1;29.08.2012;Алексеева Анастасия Валерьевна;ж;ИУФиНА;2;8-985-275-67-24;Пр.-1;Заселён;;бюджет;очная;Удмуртская Республика, г. Глазов;;2012;4;2016;есть;;
2;10.09.2012;Бакуткина Виктория Вячеславовна;ж;ИИСУ;3;8-915-113-26-74;Пр.-1;Заселён;;договор;очная;г.Подольск;;2011;4;2015;есть;;
3;07.09.2012;Белова Екатерина Алексеевна;ж;ИУТИТиМБ;4;8-964-523-38-02;Пр.-1;Заселён;;бюджет;очная;г.Куровское;;2010;5;2015;есть;;
4;05.09.2012;Викентьева Юлия Владимировна;ж;ИУПЭС;2;8-903-226-82-39;Пр.-1;Заселён;;бюджет;очная;г.Чебоксары;;2012;4;2016;есть;;
5;29.08.2012;Глухова Татьяна Вячеславовна;ж;ИУФиНА;2;8-915-111-31-40;Пр.-1;Заселён;;бюджет;очная;г.Серпухов МО;;2012;4;2016;есть;;
6;29.08.2012;Данилова Ольга Вячеславовна;ж;ИУФиНА;2;8-925-780-34-09;Пр.-1;Заселён;;бюджет;очная;Чувашская респ., Канашский р-он, д. Нижние Кибичи;;2012;4;2016;есть;;
7;30.08.2011;Ермошкина Лидия Валерьевна;ж;ИУТИТиМБ;3;8-927-855-38-58;Пр.-1;Заселён;;бюджет;очная;Чувашская республика, г.Чебоксары;;2011;4;2015;есть;;
8;29.08.2012;Камазинская Анна Геннадьевна;ж;ИИУЭ;2;8-929-618-06-61;Пр.-1;Заселён;рекомендат. Письмо;бюджет;очная;г.Бугульма;;2012;4;2016;есть;;
9;15.11.2012;Коневцева Татьяна Дмитриевна;ж;ИИСУ;3;8-916-061-90-98;Пр.-1;Заселён;;бюджет;очная;МО, г. Щелково;;2011;4;2015;;;
10;29.08.2012;о;ж;ИИУЭ;2;8-937-465-75-37;Пр.-1;Заселён;;бюджет;очная;Респ. Калмыкия, с. Яшкуль;;2012;4;2016;есть;;
11;03.09.2012;Куракина Светлана Геннадьевна;ж;ИИСУ;2;8-916-127-31-72;Пр.-1;Заселён;повтор 04.06.2013;бюджет;очная;г.Электросталь, МО;;2012;4;2016;;;
12;29.08.2012;Лукина Татьяна Алексеевна;ж;ИИСУ;2;8-920-903-33-29;Пр.-1;Заселён;развод;бюджет;очная;с.Бутылица Владимирская область;;2012;4;2016;есть;;
13;04.09.2012;Мальцева Валентина Юрьевеа;ж;ИУПСС;#ЗНАЧ!;8-906-034-57-96;Пр.-1;Заселён;;бюджет;очная;г.Пересвет МО;;Дата подачи;4;#ЗНАЧ!;;;
14;26.04.2012;Метелев Артем Павлович;м;ИУПЭС;3;8-916-447-31-21;Пр.-1;Заселён;;бюджет;очная;Солнечногорск;;2011;4;2015;;;
15;04.09.2012;Паньков Сергей Андреевич;м;ИИУЭ;2;8-985-910-75-07;Пр.-1;Заселён;;договор;очная;г.Воскресенск;;2012;4;2016;есть;;
16;29.08.2012;Тюрбеева Виктория Евгеньевна;ж;ИУФиНА;2;8-927-593-92-75;Пр.-1;Заселён;малоимущая, ходатайство;бюджет;очная;г.Элиста;;2012;4;2016;есть;;
17;29.08.2012;Федорина Юлия Вадимовна;ж;ИУФиНА;2;8-906-772-08-27;Пр.-1;Заселён;;бюджет;очная;МО, Талдомский р-он, п. Запрудия;;2012;4;2016;есть;;
18;03.09.2012;Хапусова Ольга Валерьевна;ж;ИМ;4;8-963-629-84-76;Пр.-1;Заселён;;бюджет;очная;г.Омск;;2010;5;2015;есть;;
19;29.08.2011;Хлебникова Яна Александровна;ж;ИУФиНА;3;8-919-966-58-84;Пр.-1;Заселён;ходайство Серебренникова, сборная;договор;очная;г.Коломна МО.;;2011;4;2015;есть;;
20;30.08.2012;Лопухова Анна Сергеевна;ж;ИУТИТиМБ;2;8-964-851-85-16;Пр.-1;Заселён;;бюджет;очная;р. Мордовия;;2012;4;2016;есть;;
21;16.01.2013;Свисткова Виктория Сергеевна;ж;ИГУиП;2;8-962-935-52-36;Пр.-1;Заселён;;договор;очная;Тверская область, г.Нелидово;;2012;4;2016;есть;;
22;12.10.2012;Сухинина Инна Евгеньевна;ж;ИУФиНА;3;8-916-499-12-63;Пр.-1;Заселён;развод;бюджет;очная;г. Радужный, ХМАО-Югра;;2011;4;2015;есть;;
23;04.04.2013;Макарова Любовь Глебовна;ж;ИГУиП;4;8-926-984-08-79;Пр.-1;Заселён;;бюджет;очная;г. Липецк;;2010;5;2015;есть;;
24;06.06.2013;Медведева Кристина Олеговна;ж;ИМ;2;8-925-710-97-00;Пр.-1;Заселён;;бюджет;очная;г. Белгород;;2012;4;2016;есть;;
25;20.06.2013;Макаренко Марина Александровна;ж;ИИУЭ;2;8-985-816-29-59;Пр.-1;Заселён;;договор;очная;р. Беларусь, г. Жодино;;2012;4;2016;есть;;
26;15.02.2013;Спирина Анна сергеевн;ж;ИУПСС;;;Пр.-1;Заселён;;бюджет;очная;МО, г. Сергиев Посад;;2012;4;2016;;;
27;26.08.2013;Даньшина Ольга Викторовна;ж;ИУТИТиМБ;1;8-920-879-31-52;Пр.-1;Заселён;;бюджет;очная;Калужская обл., г. Людиново;;2013;4;2017;102;;
28;26.08.2013;Сорокина Анна Юрьевна;ж;ИУТИТиМБ;1;8-987-662-16-56;Пр.-1;Заселён;;бюджет;очная;Чувашская респ., г. Чебоксары;;2013;4;2017;103;;
29;26.08.2013;Черняева Ольга Санаевна;ж;ИИСУ;1;8-937-467-12-65;Пр.-1;Заселён;;бюджет;очная;респ. Калмыкия, г. Элиста;;2013;4;2017;107;;
30;26.08.2013;Шунина Кристина Ивановна;ж;ИУТИТиМБ;1;8-915-351-15-44;Пр.-1;Заселён;;бюджет;очная;МО, г. Луховицы;;2013;4;2017;111;;
31;26.08.2013;Моисеева Анастасия Алексндровна;ж;ИМ;1;8-988-834-95-14;Пр.-1;Заселён;;бюджет;очная;г. Владикавказ, РСО-Алания;;2013;4;2017;114;;
32;26.08.2013;Моисеева Елена Александровна;ж;ИМ;1;8-988-834-95-14;Пр.-1;Заселён;;договор;очная;г. Владикавказ, РСО-Алания;;2013;4;2017;115;;
33;26.08.2013;Илларионова Анастасия Владимировна;ж;ИМ;1;8-915-177-29-37;Пр.-1;Заселён;;бюджет;очная;г. Чебоксары;;2013;4;2017;124;;
34;26.08.2013;Лиман Илья Владимирович;м;ИИСУ;1;8-916-701-46-36;Пр.-1;Заселён;;бюджет;очная;Удмуртская респ., г. Ижевск;;2013;4;2017;126;;
35;26.08.2013;Каймонова Нататалья Алексеевна;ж;ИИУЭ;1;8-914-924-46-53;Пр.-1;Заселён;;бюджет;очная;Иркутская обл., г. Ангарск;;2013;4;2017;132;;
36;26.08.2013;Хантыева Александра Саналовна;ж;ИУФиНА;1;8-937-196-43-74;Пр.-1;Заселён;;бюджет;очная;респ. Калмыкия, г. Элиста;;2013;4;2017;133;;
37;26.08.2013;Овчинникова Ксения Денисовна;ж;ИИУЭ;1;8-926-571-65-11;Пр.-1;Заселён;;бюджет;очная;Мурманская обл., г. Кировск;;2013;4;2017;134;;
38;26.08.2013;Бабкова Кристина Юрьевна;ж;ИИУЭ;1;8-987-135-05-12;Пр.-1;Заселён;;договор;очная;респ. Башкортостан, г. Стерлитамак;;2013;4;2017;139;;
39;26.08.2013;Даурбекова Амалия Майрбековна;ж;ИГУиП;1;8-928-696-06-41;Пр.-1;Заселён;;бюджет;очная;респ. Ингушетия г. Назрань;;2013;4;2017;141;;
40;26.08.2013;Базарская Мария Владимировна;ж;ИУФиНА;1;8-968-814-19-59;Пр.-1;Заселён;;бюджет;очная;Тульская обл., г. Кимовск;;2013;4;2017;142;;
41;26.08.2013;Шандронова Евгения Баатровна;ж;ИУПЭиС;1;8-968-619-37-39;Пр.-1;Заселён;;бюджет;очная;респ. калмыкия, г. Элиста;;2013;4;2017;143;;
42;26.08.2013;Маликова Кумисхан Адильевна;ж;ИУФиНА;1;8-928-224-27-08;Пр.-1;Заселён;;бюджет;очная;респ. Дагестан, Ногайский р-н, с. Терекли-Мектеб;;2013;4;2017;150;;
43;26.08.2013;Троицкая Анастасия Владимировна;ж;ИИУЭ;1;8-985-975-47-29;Пр.-1;Заселён;;бюджет;очная;Чувашская респ., г. Чебоксары;;2013;4;2017;151;;
44;26.08.2013;Пахолков Евгений Валерьевич;м;ИИУЭ;1;8-922-900-38-60;Пр.-1;Заселён;;договор;очная;Кировская обл., пос. Демьяново;;2013;4;2017;154;;
45;26.08.2013;Казиев Ислам Рамисович;м;ИУФиНА;1;8-968-076-52-83;Пр.-1;Заселён;;бюджет;очная;респ. Дагестан, г. Дербент;;2013;4;2017;157;;
46;26.08.2013;Бобзикова Ксения Александровна;ж;ИУФиНА;1;8-909-397-73-77;Пр.-1;Заселён;;бюджет;очная;респ. Калмыкия, г. Элиста;;2013;4;2017;159;;
47;26.08.2013;Бородавка Руслан Камович;м;ИИУЭ;1;8-988-869-50-65;Пр.-1;Заселён;;бюджет;очная;г. Ставрополь;;2013;4;2017;165;;
48;26.08.2013;Скибо Ирина Владимировна;ж;ИИУЭ;2;8-906-065-58-77;Пр.-1;Заселён;;бюджет;очная;Тульская обл., г. Узловая, пос. партизан;;2012;4;2016;168;;
49;26.08.2013;Азыдова Энкр Алексеевна;ж;ИИУЭ;1;8-961-548-43-01;Пр.-1;Заселён;;бюджет;очная;респ. Калмыкия, г. Элиста;;2013;4;2017;171;;
50;27.08.2013;Петрова Мария Вадимовна;ж;ИИУЭ;1;8-927-735-28-89;Пр.-1;Заселён;;бюджет;очная;г. Самара;;2013;4;2017;188;;
51;27.08.2013;Фомин Денис Вениаминович;м;ИИУЭ;1;8-960-311-41-82;Пр.-1;Заселён;;бюджет;очная;респ. Чувашия, г. Чебоксары;;2013;4;2017;189;;
52;27.08.2013;Басангова Валентина Анатольевна;ж;ИИУЭ;1;8-968-613-59-02;Пр.-1;Заселён;;бюджет;очная;респ. Калмыкия, с. Троицкое;;2013;4;2017;190;;
53;27.08.2013;Котова Екатерина Александровна;ж;ИУПСС;1;8-926-548-14-89;Пр.-1;Заселён;;бюджет;очная;МО, г, Серпухов;;2013;4;2017;191;;
54;27.08.2013;Рощектаев Иван Иванович;м;ИИУЭ;1;8-910-979-71-00;Пр.-1;Заселён;;договор;очная;г. Ярославль;;2013;4;2017;199;;
55;27.08.2013;Очур-оол Саглай Орлановна;ж;ИМ;1;8-926-056-90-26;Пр.-1;Заселён;;бюджет;очная;русп. Тыва, г.Кызыл, с. Эрзин;;2013;4;2017;201;;
56;27.08.2013;Жакиянова Асылзат Маратовна;ж;ИИУЭ;1;8-916-789-49-08;Пр.-1;Заселён;;договор;очная;Оренбургская обл., г. Орск;;2013;4;2017;205;;
57;27.08.2013;Новарчук Анастасия Владиславовна;ж;ИМ;1;8-918-426-35-01;Пр.-1;Заселён;;бюджет;очная;респ. Адыгея, г. Майкоп;;2013;4;2017;206;;
58;27.08.2013;Дадинова Александра Германовна;ж;ИУПЭиС;1;8-903-761-82-92;Пр.-1;Заселён;;бюджет;очная;респ. Калмыкия, г. Элиста;;2013;4;2017;213;;
59;27.08.2013;Ондар Долгармаа Александровна;ж;ИМ;1;8-923-262-02-80;Пр.-1;Заселён;;бюджет;очная;респ. Тыва, г. Кызыл;;2013;4;2017;216;;
60;27.08.2013;Кузнецова Наталья Борисовна ;ж;ИУФиНА;1;8-917-064-25-16;Пр.-1;Заселён;;бюджет;очная;Чувашская респ., с. Яльчики;;2013;4;2017;217;;
61;28.08.2013;Забелина Наталья Игоревна;ж;ИИУЭ;1;8-906-652-15-98;Пр.-1;Заселён;;договор;очная;Тверская обл., д. Крутец;;2013;4;2017;220;;
62;28.08.2013;Вельдина Кристина Юрьевна;ж;ИУПЭиС;1;8-987-567-37-16;Пр.-1;Заселён;;бюджет;очная;респ. Мордовия, пос.Торбеево;;2013;4;2017;221;;
63;28.08.2013;Марчук Лилия Анатольевна;ж;ИИУЭ;1;8-926-027-30-99;Пр.-1;Заселён;;бюджет;очная;РСО-Алания, с. Троицкое ;;2013;4;2017;223;;
64;28.08.2013;Айтамиров Магомед Сулиманович;м;ИУФиНА;1;8-928-890-88-72;Пр.-1;Заселён;;договор;очная;респ. Чечня, г. Грозный ;;2013;4;2017;225;;
65;28.03.2013;Попова Валерия Викторовна;ж;РГФМ;1;8-937-478-82-77;Пр.-1;Заселён;;договор;очная;респ. Башкортостан, г. Белебей;;2013;4;2017;230;;
66;28.08.2013;Тотоева Алена Хасановна;ж;ИМ;1;8-988-875-53-33;Пр.-1;Заселён;;бюджет;очная ;г. Владикавказ, РСО-Алания;;2013;4;2017;233;;
67;28.08.2013;Боваев Пюрвя Марксович;м;ИУФиНА;1;8-937-463-86-15;Пр.-1;Заселён;;бюджет;очная;респ. Калмыкия, п. Эрдниевский;;2013;4;2017;235;;
68;28.08.2013;Гагиев Дмитрий Валерьевич;м;ИГУиП;2;8-926-657-59-11;Пр.-1;Заселён;;бюджет;очная;РСО-Осетия, г. Беслан;;2012;4;2016;239;;
69;28.08.2013;Царцаева Деляш Энчаевна;ж;ИИУЭ;1;8-961-398-81-31;Пр.-1;Заселён;;бюджет;очная;респ. Калмыкия, г. Элиста;;2013;4;2017;240;;
70;28.08.2013;Пыхова Виктория Андреевна;ж;ИМ;1;8-980-331-54-94;Пр.-1;Заселён;;бюджет;очная;Брянская обл, пос. Локоть;;2013;4;2017;241;;
71;28.08.2013;Намтуева Байрта Эрдниевна;ж;ИУПСС;1;8-909-399-13-01;Пр.-1;Заселён;;бюджет ;очная;респ.Калмыкия, г.Элиста;;2013;4;2017;244;;
72;29.08.2013;Викторова Алина Викторовна;ж;ИУТИТиМБ;1;8-960-702-24-65;Пр.-1;Заселён;;бюджет;очная;Твеская обл., г. Ржев;;2013;4;2017;247;;
73;29.08.2013;Гвинцадзе Реваз Ревазович;м;ИИСУ;1;8-906-032-96-57;Пр.-1;Заселён;;договор;очная;г. Екатеринбург;;2013;4;2017;252;;
74;29.08.2013;Аджиев Абдулхамид Заурханович;м;ИУФиНА;1;8-929-560-10-50;Пр.-1;Заселён;;бюджет;очная;респ. Дагестан., Ногайский р-н, с. Терекли-Мектеб;;2013;4;2017;255;;
75;29.08.2013;Мавлюбердинов Даниил Вадимович;м;;1;8-920-282-17-25;Пр.-1;Заселён;;бюджет;очная;г. Орел;;2013;4;2017;259;;
76;29.08.2013;Разумный Максим Александрович;м;ИИУЭ;1;8-915-661-13-72;Пр.-1;Заселён;;договор;очная;Тамбовская обл., г. Мичуринск;;2013;4;2017;264;;
77;29.08.2013;Николаева Анастасия Александровна;ж;ИМ;1;8-916-311-51-46;Пр.-1;Заселён;;бюджет;очная;г.Кисловодск, Ставропольский край;;2013;4;2017;266;;
78;29.08.2013;Проказова Юлия Витальевна;ж;;1;8-923-187-17-97;Пр.-1;Заселён;;;очная;респ. Мордовия;;2013;4;2017;268;;
79;29.08.2013;Бабичева Алла Романовна;ж;;1;8-917-352-03-70;Пр.-1;Заселён;;;очная;респ. Башкортостан;;2013;4;2017;269;;
80;29.08.2013;Ованов Андрей Алексеевич;м;ИУПЭС;1;8-960-897-82-23;Пр.-1;Заселён;;;очная;респ. Калмыкия, г. Элиста;;2013;4;2017;270;;
81;29.08.2013;Шовченова Анастасия Олеговна;ж;;1;8-915-398-13-84;Пр.-1;Заселён;;;очная;Краснодарский край, г. Кропоткин;;2013;4;2017;271;;
82;29.08.2013;Савельева Кристина Алексеевна;ж;;1;8-965-172-72-84;Пр.-1;Заселён;;;очная;МО, г. Коломна;;2013;4;2017;272;;
83;29.08.2013;Благинин Николай Андреевич;м;;1;8-918-571-41-57;Пр.-1;Заселён;;;очная;Ростовская обл., г. Волгодонск;;2013;4;2017;273;;
84;29.08.2013;ЛЮТИКОВА Дарья Сергееевна;ж;;1;8-985-292-71-31;Пр.-1;Заселён;;;очная;МО, г. Краснозаводск;;2013;4;2017;274;;
85;29.08.2013;Спивак Вадим Вячеславович;м;;1;8-987-478-22-01;Пр.-1;Заселён;;;очная;респ. Башкортостан, г. Давлеканово;;2013;4;2017;275;;
86;29.08.2013;БАДИкОВА Ирина Алексеевна;ж;;1;8-915-345-73-45;Пр.-1;Заселён;;;очная;г. Щелково;;2013;4;2017;276;;
87;29.08.2013;Ахметьянов Роман Вадимович;м;;1;8-928-283-35-55;Пр.-1;Заселён;;;очная;г. Краснодар;;2013;4;2017;277;;
88;29.08.2013;Зунов Савр Эрдниевич;м;;1;8-905-400-31-11;Пр.-1;Заселён;;;очная;респ. Калмыкия, г. Элиста;;2013;4;2017;278;;
89;29.08.2013;Яфарова Резеда Ильдаровна;ж;;1;8-953-409-11-65;Пр.-1;Заселён;;;очная;респ. Татарстан;;2013;4;2017;279;;
90;29.08.2013;Братишко Анна Сергеевна;ж;;2;8-915-561-62-77;Пр.-1;Заселён;;;очная;Белгородская обл., ;;2013;4;2017;280;;
91;30.08.2013;Михайлина Елена Сергеевна;ж;;1;;Пр.-1;Заселён;;;очная;;;2013;4;2017;281;;
92;30.08.2013;Глазунова Алина Андреевна;ж;ИУТИТиМБ;1;8-937-731-33-83;Пр.-1;Заселён;;договор;очная;Волгоградская обл, Станица Сергиевская;;2013;4;2017;282;;
93;30.08.2013;Бойкова Екатерина Николаевна;ж;ИУТИТиМБ;1;8-967-173-20-25;Пр.-1;Заселён;;договор;очная;Волгоградская обл, х.Заполянский;;2013;4;2017;283;;
94;30.08.2013;Галкина Татьяна Андреевна;ж;ИИУЭ;1;8-927-665-79-66;Пр.-1;Заселён;;договор ;очная;респ. Чувашия, г. Чебоксары;;2013;4;2017;285;;
95;30.08.2013;Понасенкова Людмила Владимировна;ж;ИУТИТиМБ;1;8-915-651-53-90;Пр.-1;Заселён;;бюджет;очная;Смоленская обл, д. Владимировка;;2013;4;2017;286;;
96;30.08.2013;Седунова Наталья Александровна;ж;ИГУиП;1;8-911-380-27-04;Пр.-1;Заселён;;бюджет;очная;г. Псков;;2013;4;2017;288;;
97;30.08.2013;Кочиева ирина Владимировна;ж;ИУПСС;1;8-965-423-03-57;Пр.-1;Заселён;;бюджет;очная;Тюменская обл., г. Пыть-Ях;;2013;4;2017;291;;
98;30.08.2013;Пирмагомедова Фатима Физулиевна;ж;ИУПСС;1;8-985-435-70-12;Пр.-1;Заселён;;бюджет;очная;респ. Дагестан, г. Каспийск;;2013;4;2017;293;;
99;30.08.2013;Тамов Али Мухарбиевич;м;ИУТИтиМБ;1;8-928-392-08-52;Пр.-1;Заселён;;бюджет;очная;респ. Карачаево-Черкессия, г. Черкесск;;2013;4;2017;295;;
100;30.08.2013;Санджиев Зунгру Николаевич;м;ИГУиП;1;8-927-595-85-22;Пр.-1;Заселён;;бюджет;очная;респ. Калмыкия, с Малые Дербеты;;2013;4;2017;296;;
101;02.09.2013;Белекеева Юлия Сергеевна;ж;ИИУЭ;1;8-929-905-50-20;Пр.-1;Заселён;;договор;очная;МО, г. Воскресенск;;2013;4;2017;305;;
102;03.09.2013;Димитрова Роксана Павловна;ж;ИУТИТиМБ;1;8-985-811-90-91;Пр.-1;Заселён;;бюджет;очная;г. Горячий Ключ;;2013;4;2107;315;;
103;03.09.2013;Вербицкий Владислав Сергеевич;м;ИИУЭ;1;8-928-360-64-08;Пр.-1;Заселён;;бюджет;дневная;Ставропольский край  г.Железноводск пос. Иноземцево;;2013;4;2017;321;;
104;03.09.2013;Зорина Анна Сергеевна;ж;Маркетинг;1;8-965-291-25-31;Пр.-1;Заселён;;бюджет;очная;Краснодарский край г. Славянск-На-Кубани;;2013;4;2017;322;;
105;04.09.2013;Петрова Яна Владиславовна;ж;ИУПСС;2;"8-903-533-93-16; 8-905-606-39-48";Пр.-1;Заселён;;бюджет;очная;г. Кимры, Тверская область;;2012;4;2016;325;;
106;04.09.2013;Стенина Надежда Вадимовна;ж;ИУФиНА;1;8-950-954-69-67;Пр.-1;Заселён;;бюджет;очная;г. Омск;;2013;4;2017;326;;
107;04,09,2013;Тюряев Рустам Хуршедович;м;ИГУиП;3;89262579942;Пр.-1;Заселён;;бюджет;очная;пгт, Зубова Поляна ;;2011;4;2015;333;;
108;05,09,2013;Курбанов Курбан Мухтарович;м;ИУФиНА;1;8-925-360-06-37;Пр.-1;Заселён;;договор;очная;Республика Дагестан, с. Гелин-батан;;2013;4;2017;336;;
109;09.09.2013;Батчаев Азамат Османович ;м;ИИСУ;4;89266455009;Пр.-1;Заселён;;договор;очная;Карачаево-Черкесская республика А. кумыш;;2010;5;2015;353;;
110;10.09.2013;Байрамуков Алан Таймуразоич;м;ИГУиП;1;89261451465;Пр.-1;Заселён;;бюджет;очная;г. Кисловодск;;2013;4;2017;361;;
111;13.09.2013;Миляева Галина Вячеславовна;ж;ИИУЭ;4;89264232365;Пр.-1;Заселён;;бюджет;очная;МО, г. Звенигород ;;2010;5;2015;368;;
112;13.09.2013;Киринов Долан Саналович;м;ИУПСС;1;89615472525;Пр.-1;Заселён;;бюджет;очная;г. Элиста;;2013;4;2014;370;;
113;13.09.2013;Кудрявцева Анжелика Васильевна;ж;ИУФИНА;1;;Пр.-1;Заселён;;;;;;;;;372;;
114;13.09.2013;Майорова Юлия Витальевна;ж;;1;;Пр.-1;Заселён;;;;;;;;;373;;
115;13.09.2013;Сараева Ирина Алексеева;ж;ИУПСС;1;8-906-738-73-08;Пр.-1;Заселён;;;;М.О. Лукино-Дулево;;;;;375;;
116;29.08.2013;Капарова Констанция Олеговна;ж;ИУПСС;1;8-916-428-22-07;Пр-.1;Заселён;;бюджет;очная;Чувашская респ., д. Эренары;;2013;4;2017;251;;
117;13.09.2013;Кузнецова Алена Андреевна;ж;ИМ ;3;8-915-187-15-13;Пр.-1;Заселён;;;;М.О. Никитское;;;;;;;
118;26.08.2013;Пищулина Мария Владимировна;ж;;1;8-937-028-83-58;пр. СТ-57;Заселён;инвалид;бюджет;очная;Саратовская обл., г. Балаково;;2013;4;2017;;;
119;26.08.2013;Подкопаев Глеб Вячеславович;м;;1;8-965-134-09-55;;Заселён;инвалид;договор;очная;г. Сочи;;2013;4;2017;;;
120;12.09.2013;Горваш Арина Витальевна;ж;ИУПСС;;89067662197;Пр.-1;Заселён;;;;г. Рязань;;;;;365;;
121;11.03.2013;Власак Ольга Эдуардовна;ж;ИГУиП;2;8-915-432-001-62;Пр.-2;Заселён;;бюджет;очная;г.Краснадар;;2012;4;2016;есть;;
122;23.10.2013;Меркулов Дмитрий Владимирович;м;;1;8-929-918-86-99;Пр.-2;Заселён;;;;Владимирска обл., г. Кольчугино;;2013;2;2015;380;;
123;23.10.2013;Курнышева Елизавета Николаевна;ж;;1;8-909-240-71-87;Пр.-2;Заселён;;;очная;Брянская обл., г.Новозыбков;;2013;2;2015;381;;
124;23.10.2013;Вешняков Николай Алексеевич;м;;1;9-919-172-94-41;Пр.-2;Заселён;;;;Курская обл.;;2013;2;2015;383;;
125;23.10.2013;Иохин Олег Евгеньевич;м;ИУТИТиМБ;1;8-926-281-81-06;Пр.-2;Заселён;;бюджет;очная;МО, г.Коломна;;2013;2;2015;384;;
126;23.10.2013;Доронин Евгений Сергевич;м;;1;8-919-994-12-93;Пр.-2;Заселён;;;;г. Железногорск;;2013;2;2015;385;;
127;23.10.2013;Будько Вячеслав Вячеславович;м;ИГУиП;1;8-964-537-24-69;Пр.-2;Заселён;;бюджет;очная;г. Тула;;2013;2;2015;386;;
128;23.10.2013;Волобуев Вадим Валерьевич;м;ИУПСС;1;8-925-002-77-14;Пр.-2;Заселён;;договор;очная;г. Курск;;2013;2;2015;387;;
129;23.10.2013;Марусова Екатерина Дмитриевна;ж;;1;8-965-285-80-87;Пр.-2;Заселён;;;;г. Лениногорск;;2013;2;2015;388;;
130;23.10.2013;Богданова Татьяна Владимировна;ж;ИУТИТиМБ;1;8-909-651-30-16;Пр.-2;Заселён;;бюджет;очная;Воронежская обл., с Коширское;;2013;2;2015;389;;
131;23.10.2013;Жежа Павел Викторович;м;;;;Пр.-2;Заселён;;бюджет;очная;Свердловская обл., г. Каменск-Уральский;;2013;2;2015;390;;
132;23.10.2013;Колосов Илья Васильевич;м;;1;8-916-819-76-46;Пр.-2;Заселён;;;;г. Златоуст;;2013;2;2015;391;;
133;23.10.2013;Мерещягина Александра Олеговна;ж;;1;8-965-300-21-80;Пр.-2;Заселён;;;;Свердловская обл., г. Каменск-Уральский;;2013;2;2015;392;;
134;29.08.2013;Босхомджиев Арслан Юрьевич;м;ИМ;1;8-961-544-10-02;Пр.-2;заселён;;бюджет;очная;респ. Калмыкия., г. Элиста;;2013;4;2017;261;;
135;06.09.2013;Нюхалов Джон Андреевич;м;ИИУЭ;1;89857221728;Пр.-2;заселён;;договор;очная;г. Оренбург ;;2013;4;2017;350;;
136;25.08.2011;Акопова Кристина Александровна;ж;ИУПЭС;3;8-915-405-90-78;Пр.-3;Заселён;отличница, развод;бюджет;очная;г. Сочи;;2011;4;2015;есть;;
137;29.08.2012;Аркадьева Анастасия Витальевна;ж;ИИУЭ;2;8-967-231-93-65;Пр.-3;Заселён;;бюджет;очная;Чувашская республика, г. Чебоксары;;2012;4;2016;есть;;
138;15.11.2012;Барсуков Алексей Владимирович;м;ИИУЭ;2;8-929-559-70-39;Пр.-3;Заселён;;бюджет;очная;Тамбовская обл., Бондарский р-н, с. Керша;;2012;4;2016;есть;;
139;26.11.2012;Бокаева Луиза Павловна;ж;ИИУЭ;3;8-916-798-85-46;Пр.-3;Заселён;Черноб.справка;договор;очная;Калужская обл., д Вербежичи;;2011;4;2015;есть;;
140;03.10.2012;Борзова Юлия Андреевна;ж;ИМ;2;8-906-700-16-98;Пр.-3;Заселён;;бюджет;очная;г. Санкт-Петербург;;2012;4;2016;есть;;
141;04.09.2012;Бутолин Василий Викторович;м;ИИСУ;2;8-985-437-49-68;Пр.-3;Заселён;;бюджет;очная;г.Электросталь, МО;;2012;4;2016;есть;;
142;30.08.2012;Васильев Никита Валерьевич;м;ИИСУ;2;8-916-144-44-94;Пр.-3;Заселён;;бюджет;очная;г.Сергиев Посад;;2012;4;2016;есть;;
143;25.08.2011;Вильданова Элина Радиковна;ж;ИУПЭС;3;8-927-463-22-32;Пр.-3;Заселён;;бюджет;очная;Татарстан, г.Бавелы;;2011;4;2015;есть;;
144;18.11.2011;Винтина Лариса Владимировна;ж;ИИСУ;4;;Пр.-3;Заселён;;бюджет;очная;МО Куровское;;2010;5;2015;есть;;
145;29.08.2012;Гайсина Юлия Рафиковна;ж;ИИУЭ;2;8-915-146-72-30;Пр.-3;Заселён;развод;бюджет;очная;пос.Хани Якутия;;2012;4;2016;есть;;
146;29.08.2012;Ганаев Ислам Асланович;м;ИИУЭ;2;8-929-930-76-65;Пр.-3;Заселён;;бюджет;очная;г.Грозный;;2012;4;2016;есть;;
147;29.08.2012;Гарейшина Марта Рустамовна;ж;ИУПЭС;2;8-917-510-11-25;Пр.-3;Заселён;Хорошистка ;бюджет;очная;г.Уфа;;2012;4;2016;есть;;
148;29.08.2012;Гошадзе Михаил Техгазович;м;ИИУЭ;2;8-916-566-84-24;Пр.-3;Заселён;;бюджет;очная;г.Серпухов МО;;2012;4;2016;есть;;
149;29.08.2012;Гречишкина Екатерина Сергеевна;ж;ИИУЭ;2;8-905-145-67-11;Пр.-3;Заселён;отличница;бюджет;очная;Владимирская обл, г. Владимир;;2012;4;2016;есть;;
150;27.08.2011;Жигалкина Анастасия Александровна;ж;ИИУЭ;3;8-968-915-30-06;Пр.-3;Заселён;;бюджет;очная;г.Воронеж;;2011;4;2015;есть;;
151;25.08.2011;Загорулькина Анастасии Игоревна;ж;ИУПЭС;3;8-909-944-57-42;Пр.-3;Заселён;отличница;бюджет;очная;Моск.обл., г.Руза;;2011;4;2015;есть;;
152;06.09.2012;Иванова Елена Дмитриевна;ж;ИИСУ;2;8-915-338-55-00;Пр.-3;Заселён;развод;бюджет;очная;г.Кашира;;2012;4;2016;есть;;
153;04.09.2012;Иваровская Кристина Анатольевна;ж;ИУПЭС;2;8-967-095-43-29;Пр.-3;Заселён;развод;бюджет;очная;г.Воскресенск;;2012;4;2016;есть;;
154;29.08.2012;Кареева Мария Максимовна;ж;ИУПЭС;2;8-912-764-92-24;Пр.-3;Заселён;;бюджет;очная;Удмуртская Республика, г. Сарапул;;2012;4;2016;есть;;
155;04.09.2012;Королева Юлия Вадимовна;ж;ИИСУ;2;8-905-521-28-45;Пр.-3;Заселён;;бюджет;очная;г.Боровичи;;2012;4;2016;есть;;
156;11.10.2012;Котлярова Анастасия Сергеевна;ж;ИУФиНА;2;8-985-113-88-05;Пр.-3;Заселён;;бюджет;очная;г.Саранск;;2012;4;2016;есть;;
157;25.08.2011;Куценко Любовь Викторовна;ж;ИУФиНА;3;8-915-157-08-46;Пр.-3;Заселён;родители пенсионеры;бюджет;очная;г.Курск;;2011;4;2015;есть;;
158;02.09.2011;Лошкарева Татьяна Александровна;ж;ИУПЭС;3;8-926-728-68-99;Пр.-3;Заселён;;бюджет;очная;Оренбургская обл., г.Бугуруслан;;2011;4;2015;есть;;
159;29.08.2012;Магомадов Сидек Хаважович;м;ИИУЭ;2;8-963-594-63-23;Пр.-3;Заселён;;бюджет;очная;Чеченская республика;;2012;4;2016;есть;;
160;31.08.2012;Мальцева Анастасия Степановна;ж;ИИСУ;2;8-905-757-88-94;Пр.-3;Заселён;Хорошистка (только одна 4);бюджет;очная;г.Тольятти;;2012;4;2016;есть;;
161;30.08.2012;Матвеева Диана Сергеевна;ж;ИУПЭС;2;8-916-412-74-40;Пр.-3;Заселён;развод;бюджет;очная;п.Киреси, Чувашия;;2012;4;2016;есть;;
162;06.09.2012;Мирошниченко Любовь Константиновна;ж;ИИСУ;2;8-903-266-09-54;Пр.-3;Заселён;развод;бюджет;очная;г.Орел;;2012;4;2016;есть;;
163;29.08.2012;Морозова Татьяна Павловна;ж;ИУПЭС;2;8-916-872-43-10;Пр.-3;Заселён;;бюджет;очная;г.Ковров Владимирская область;;2012;4;2016;есть;;
164;29.08.2012;Назарова Наталья Александровна;ж;ИИУЭ;2;8-906-561-64-60;Пр.-3;Заселён;;бюджет;очная;Владимирская обл, г. Владимир;;2012;4;2016;есть;;
165;06.09.2012;Николаева Ангелина Денисовна;ж;ИУПЭС;2;8-965-219-19-69;Пр.-3;Заселён;хорошисткка;бюджет;очная;г.Орехово-Зуево МО;;2012;4;2016;есть;;
166;30.08.2012;Николаева Наталья Александровна;ж;ИГУиП;2;8-919-656-04-91;Пр.-3;Заселён;отличница;бюджет;очная;п.Ибреси;;2012;4;2016;есть;;
167;29.08.2012;Очирова Амуланг Саналовна;ж;ИГУиП;2;8-909-395-00-78;Пр.-3;Заселён;малоимущая, развод;бюджет;очная;Република Калмыкия, г. Элиста;;2012;4;2016;есть;;
168;06.09.2012;Петровская О.В.;ж;ИИУЭ;2;8-968-526-35-27;Пр.-3;Заселён;развод;бюджет;очная;г.Томск;;2012;4;2016;есть;;
169;03.09.2012;Пугач Анастасия Михайловна;ж;ИУПЭС;2;8-903-296-55-31;Пр.-3;Заселён;;бюджет;очная;г.Ногинск;;2012;4;2016;есть;;
170;26.09.2012;Рудаковская Юлия Александровна;ж;ИИУЭ;2;8-916-099-91-04;Пр.-3;Заселён;;бюджет;очная;г.Новороссийск;;2012;4;2016;есть;;
171;30.08.2011;Сарайкина Мария Вадимовна;ж;ИИУЭ;3;;Пр.-3;Заселён;развод;бюджет;очная;МО, г.Серпухов;;2011;4;2015;есть;;
172;31.08.2012;Сигида Анастасия Евгеньевна;ж;ИУФиНА;2;8-962-365-62-20;Пр.-3;Заселён;развод;бюджет;очная;г.Магадан;;2012;4;2016;есть;;
173;05.09.2012;Соловьева Екатерина Игоревна;ж;ИУПЭС;2;8-916-581-12-84;Пр.-3;Заселён;развод;бюджет;очная;г.Новочебоксарск;;2012;4;2016;есть;;
174;03.09.2012;Тарасова Кристина Александровна;ж;ИУПЭС;3;8-985-423-72-65;Пр.-3;Заселён;;бюджет;очная;г.Волынка;;2011;4;2015;есть;;
175;30.08.2011;Титова Екатерина Андреевна;ж;ИУФиНА;3;8-985-492-65-30;Пр.-3;Заселён;малоимущая, отличница,;бюджет;очная;г.Брянск;;2011;4;2015;есть;;
176;29.08.2012;Толмачева Анастасия Михайловна;ж;ИУТИТиМБ;2;8-910-552-71-92;Пр.-3;Заселён;;договор;очная;Тульская обл., г. Новоросийск;;2012;4;2016;есть;;
177;30.08.2012;Третьякова Мария Константиновна;ж;ИУПЭС;3;8-421-544-13-93;Пр.-3;Заселён;Хорошистка ;бюджет;очная;Хабаровский край, п.Мухен;;2011;4;2015;есть;;
178;24.09.2012;Утина Надежда Сергеевна;ж;ИУФиНА;3;8-909-903-65-21;Пр.-3;Заселён;малоимущая;бюджет;очная;МО с.Пышлицы;;2011;4;2015;есть;;
179;29.08.2012;Ученова Эвелина Викторовна;ж;ИИУЭ;2;8-963-719-46-54;Пр.-3;Заселён;;бюджет;очная;г.Элиста;;2012;4;2016;есть;;
180;29.08.2012;Фарафошина Юлия Александровна;ж;ИИУЭ;2;8-915-856-07-13;Пр.-3;Заселён;Хорошистка (только одна 4);бюджет;очная;г.Липецк;;2012;4;2016;есть;;
181;29.08.2012;Федорова Мария Юрьевна;ж;ИУТИТиМБ;2;8-910-839-18-85;Пр.-3;Заселён;малоимущая;бюджет;очная;г.Торжок Тверская область;;2012;4;2016;есть;;
182;29.08.2012;Финько Валерия Дмитриевна;ж;ИМ;2;8-915-105-10-72;Пр.-3;Заселён;;бюджет;очная;г.Губкин;;2012;4;2016;есть;;
183;20.11.2012;Хугаева Виктория Казбековна;ж;ИУФиНА;2;8-915-425-30-68;Пр.-3;Заселён;;бюджет;очная;РСО - Алания, с. Октябрьское;;2012;4;2016;есть;;
184;03.09.2012;Цуканова Татьяна Валерьевна;ж;ИУТИТиМБ;3;8-926-725-67-35;Пр.-3;Заселён;развод, отличница;бюджет;очная;г.Электорсталь;;2011;4;2015;есть;;
185;06.09.2012;Шедов Сергей Владимирович;м;ИУПЭС;2;8-916-773-53-97;Пр.-3;Заселён;;бюджет;очная;г.Электросталь, МО;;2012;4;2016;есть;;
186;06.09.2012;Шишкина Анастасия Сергеевна;ж;ИУПСС;2;8-962-980-09-82;Пр.-3;Заселён;многодетная;договор;очная;г.Красноармейск;;2012;4;2016;есть;;
187;29.08.2012;Яндуганова Анна Валентиновна;ж;ИУТИТиМБ;2;8-937-932-89-30;Пр.-3;Заселён;;бюджет;очная;п.Медведево Марий Эл;;2012;4;2016;есть;;
188;12.12.2012;Березина Анастасия Юрьевна;ж;ИУПСС;2;8-916-373-37-96;Пр.-3;Заселён;развод;договор;очная;МО, г. Электросталь;;2012;4;2016;есть;;
189;25.12.2012;Юранова Валерия Александровна;ж;ИИУЭ;2;8-315-227-48-54;Пр.-3;Заселён;;бюджет;очная;г. Пенза;;2012;4;2016;есть;;
190;22.01.2013;Сумачева Ирина Валерьевна;ж;ИУФиНА;2;8-963-622-27-67;Пр.-3;Заселён;развод;бюджет;очная;МО, Дмитровский р-н, г. Яхрона;;2012;4;2016;есть;;
191;12.10.2012;Бутнара Виктория Игоревна;ж;ИИСУ;2;8-916-451-17-86;Пр.-3;Заселён;;бюджет;очная;МО, г.Егорьевск;;2012;4;2016;есть;;
192;18.02.2013;Бугаева Анастасия Олеговна;ж;ИГУиП;2;8-916-626-92-80;Пр.-3;Заселён;;бюджет;очная;г. Астрахань;;2012;4;2016;есть;;
193;18.02.2013;Антонова Екатерина Сергеевна;ж;ИГУиП;2;8-916-427-85-65;Пр.-3;Заселён;развод;бюджет;очная;Курсакая обл., г. Железногорск;;2012;4;2016;есть;;
194;26.02.2013;Данцева Алена Александровна;ж;ИУПЭС;2;8-915-375-44-94;Пр.-3;Заселён;развод;бюджет;очная;МО,г. Электросталь;;2012;4;2016;есть;;
195;27.02.2013;Загриева Галия Маратовна;ж;ИУПЭС;2;8-916-409-39-69;Пр.-3;Заселён;;бюджет;очная;р. Чувашия, Урмарский р-н, п. Урмары;;2012;4;2016;есть;;
196;08.05.2013;Бузулуцкий Алексей Вадимович;м;ИУФиНА;2;8-916-406-41-47;Пр.-3;Заселён;;бюджет;очная;МО, г. Красноармейск;;2012;4;2016;есть;;
197;07.03.2013;Царахова Элина Аслановна;ж;ИМ;;8-988-831-66-52;Пр.-3;Заселён;;бюджет;очная;РСО-Алания, г. Владикавказ;;;;;есть;;
198;26.08.2013;Габидуллина Екатерина Левитановна;ж;ИУПЭиС;1;8-926-659-90-51;Пр.-3;Заселён;малоимущая;бюджет;очная;респ. Башкортостан, г. Нефтекамск;;2013;4;2017;100;;
199;26.08.2013;Лигай Светлана Игоревна;ж;ИУПЭиС;1;8-988-629-06-73;Пр.-3;Заселён;отец ветеран;договор;очная;Ставропольский край, г. Кисловодск;;2013;4;2017;105;;
200;26.08.2013;Пелех Дарья Андреевна;ж;ИУТИТиМБ;1;8-910-958-74-52;Пр.-3;Заселён;отличница;бюджет;очная;Костромская обл., пос. Кадый;;2013;4;2017;106;;
201;26.08.2013;Кесаева Розали Алановна;ж;ИУПЭиС;1;8-925-885-48-15;Пр.-3;Заселён;;бюджет;очная;Ставропольский край, г. Кисловодск;;2013;4;2017;108;;
202;26.08.2013;Салина Анна Сергеевна;ж;ИУФиНА;1;8-927-654-87-03;Пр.-3;Заселён;;бюджет;очная;Самарская обл., Волжский р-н, пос. Рощинский;;2013;4;2017;113;;
203;26.08.2013;Браусова Инесса Вадимовна;ж;ИИУЭ;1;8-904-009-53-19;Пр.-3;Заселён;;бюджет;очная;Тверская обл., г. Ржев;;2013;4;2017;116;;
204;26.08.2013;Черских Анна Александровна;ж;ИМ;1;8-916-170-14-20;Пр.-3;Заселён;;бюджет;очная;Белгородская обл., г. Старый Оскол;;2013;4;2017;123;;
205;26.08.2013;Шадиев Ахмед Магометович;м;ИУПСС;1;8-926-060-87-13;Пр.-3;Заселён;малоимущая;бюджет;очная;респ. Ингушетия, г. Малгобек;;2013;4;2017;127;;
206;26.08.2013;Платонов Артем Анатольевич;м;ИУПЭиС;1;8-985-727-27-17;Пр.-3;Заселён;одна мама;бюджет;очная;МО, г, Шатура;;2013;4;2017;128;;
207;26.08.2013;Смирнова Наталья Аркадьевна;ж;ИУПЭиС;1;8-920-892-31-80;Пр.-3;Заселён;малоимущая, ребенок-сирота;бюджет;очная;Калужская обл., г. Боровск;;2013;4;2017;129;;
208;26.08.2013;Баранова Яна Сергеевна;ж;ИУТИТиМБ;1;8-906-090-90-49;Пр.-3;Заселён;развод;бюджет;очная;Тверская обл., г. Конаков;;2013;4;2017;131;;
209;26.08.2013;Кукаева Инга Васильевна;ж;ИИУЭ;1;8-927-595-53-99;Пр.-3;Заселён;малоимущая;бюджет;очная;респ. Калмыкия, с. Сарпа;;2013;4;2017;138;;
210;26.08.2013;Черногорец Анна Андреевна;ж;ИУФиНА;1;8-985-461-40-92;Пр.-3;Заселён;;бюджет;очная;Ростовская обл., г. Таганрог;;2013;4;2017;140;;
211;26.08.2013;Суменкова Ангелина Андреевна;ж;ИУПэЭиС;1;8-905-621-29-05;Пр.-3;Заселён;;бюджет;очная;Тульская обл., г. Венев;;2013;4;2017;147;;
212;26.08.2013;Райс Луиза Андреевна;ж;ИУТИТиМБ;1;8-968-545-91-23;Пр.-3;Заселён;;бюджет;очная;Закбайкальский край, г. Чита;;2013;4;2017;152;;
213;26.08.2013;Бисаев Рамазан Алиханович;м;ИГУиП;1;8-928-695-36-10;Пр.-3;Заселён;малоимущая,родители инвалиды, письмо;бюджет;очная;респ. Ингушетия, г. Малгобек;;2013;4;2017;155;;
214;26.08.2013;Михайловская Ксения Андреевна;ж;ИГУиП;1;8-982-300-31-31;Пр.-3;Заселён;отличница;бюджет;очная;г. Челябинск;;2013;4;2017;156;;
215;26.08.2013;Хлыбова Наталья Игоревна;ж;ИУФиНА;1;8-926-950-99-79;Пр.-3;Заселён;;бюджет;очная;МО, г. Красноармейск;;2013;4;2017;158;;
216;26.08.2013;Малеш Анастасия Николаевна;ж;ИУТИТиМБ;1;8-985-968-07-66;Пр.-3;Заселён;;договор;очная;г. Иркутск;;2013;4;2017;160;;
217;26.08.2013;Сидоров Виктор Евгеньевич;м;ИУТИТиМБ;1;8-925-879-28-58;Пр.-3;Заселён;;бюджет;очная;Свердловская обл., г. Нижний Тагил;;2013;4;2017;163;;
218;26.08.2013;Лущик Мария Сергеевна;ж;ИУТИТиМБ;1;8-903-619-73-10;Пр.-3;Заселён;;бюджет;очная;МО, г. Красногвардейск;;2013;4;2017;164;;
219;26.08.2013;Шибалова Екатерина Николаевна;ж;ИУТИТиМБ;1;8-967-362-12-44;Пр.-3;Заселён;;бюджет;очная;респ. Татарстан, г. Зеленодольск;;2013;4;2017;169;;
220;26.08.2013;Максютина Кристина Дмитриевна;ж;ИУПСС;1;8-915-069-17-96;Пр.-3;Заселён;;бюджет;очная;г. Пермь;;2013;4;2017;180;;
221;26.08.2013;Перекотина Анастасия Денисовна;ж;ИМ;1;8-925-700-60-32;Пр.-3;Заселён;развод;бюджет;очная;г. Тамбов;;2013;4;2017;181;;
222;27.08.2013;Анджаева Алтн Саналовна;ж;ИУФиНА;1;8-937-193-15-21;Пр.-3;Заселён;малоимущая, отличница;бюджет;очная;респ. Калмыкия, г. Лагань;;2013;4;2017;185;;
223;27.08.2013;Горяева Ангира Александровна;ж;ИУТИТиМБ;1;8-905-484-11-75;Пр.-3;Заселён;малоимущая;бюджет;очная;респ. Калмыкия, г. Элиста;;2013;4;2017;187;;
224;27.08.2013;Абрамова Ольга Николаевна;ж;ИУТИТиМБ;1;8-927-665-80-97;Пр.-3;Заселён;отличница;бюджет;очная;Чувашская респ., г. Канаш;;2013;4;2017;196;;
225;27.08.2013;Бурдина Анастасия Алесандровна;ж;ИИУЭ;1;8-929-564-03-75;Пр.-3;Заселён;развод;бюджет;очная;Самарская обл., г. Тольятти;;2013;4;2017;202;;
226;27.08.2013;Якупова Марьям Яткяревна;ж;ИУПЭиС;1;8-929-571-32-92;Пр.-3;Заселён;хорошистка;бюджет;очная;г. Пенза;;2013;4;2017;210;;
227;28.08.2013;Сучков Александр Владимирович;м;ИУФиНА;1;8-915-537-30-23;Пр.-3;Заселён;малоимущая, отличник;бюджет;очная;Брянская обл.,г.Мглин;;2013;4;2017;218;;
228;28.08.2013;Афанакина Анастасия Андреевна;ж;ИМ;1;8-916-783-01-29;Пр.-3;Заселён;;бюджет;очная;г.Омск;;2013;4;2017;224;;
229;28.08.2013;Пичугина Елизавета Сергеевна;ж;ИУПСС;1;8-929-578-68-95;Пр.-3;Заселён;развод;бюджет ;очная;Самарская обл., г. Тольятти;;2013;4;2017;227;;
230;28.08.2013;Свитнева Ольга Федоровна ;ж;ИИСУ;1;8-968-354-37-01;Пр.-3;Заселён;развод;бюджет;очная;Пензенская обл., г.Сердобск;;2013;4;2017;237;;
231;28.08.2013;Даречкин Валентин Михайлович;м;ИИУЭ;1;8-909-951-36-97;Пр.-3;Заселён;;бюджет;очная;МО, п. Мешерино-1;;2013;4;2017;242;;
232;29.09.2013;Сергиенко Алена Валентиновна;ж;ИУФиНА;2;8-964-639-54-83;Пр.-3;Заселён;развод;бюджет;очная;г. Электросталь;;2012;4;2016;246;;
233;29.08.2013;Разгуляева Дарья Николаевна;ж;ИУТИТиМБ;1;8-916-618-14-86;Пр.-3;Заселён;мать-одиночка,хорошистка;бюджет;очная;МО, г. Серпухов;;2013;4;2017;249;;
234;29.08.2013;Кочуров Артем Аркадьевич;м;ИУТИтиМБ;1;8-910-163-58-87;Пр.-3;Заселён;;бюджет;очная;Тульская обл., г. Новомосковск;;2013;4;2017;250;;
235;29.08.2013;Савина Виктория Олеговна;ж;ИУПЭиС;1;8-968-078-99-86;Пр.-3;Заселён;;бюджет;очная;респ. Кабардино-Балкария, г. Майский;;2013;4;2017;254;;
236;29.08.2013;Любченко Юлия Руслановна;ж;ИИУЭ;1;8-925-172-42-57;Пр.-3;Заселён;;бюджет;очная;Курская обл., г. Железногорск;;2013;4;2017;260;;
237;30.08.2013;Алексеева Анастасия Анатольевна;ж;ИМ;1;8-915-301-44-04;Пр.-3;Заселён;;бюджет;очная;Чувашская респ., г. Чебоксары;;2013;4;2017;289;;
238;30.08.2013;Попович Сергей Станиславович;м;;1;89263813035;Пр.-3;Заселён;;;очная;Краснодарский край;;2013;4;2017;297;;
239;30.08.2013;Абдуллаев Омар Тельманович;м;ИУПЭиС;1;89295960526;Пр.-3;Заселён;многодетная, малоимущая, хорошист;бюджет;очная;Республика Дагестан, с. Магара;;2013;4;2017;298;;
240;30.08.2013;Филиппова Ольга Валерьевна;ж;ИУПСС;1;8-919-664-15-35;Пр.-3;Заселён;мать-одиночка, многодетная;бюджет;очная;р. Чувашия, г. Чебоксары;;2013;4;2017;303;;
241;02.09.2013;Верижникова Кристина Сергеевна;ж;ИИУЭ;2;8-925-861-24-54;Пр.-3;Заселён;развод, хорошистка;бюджет;очная;Орловская обл., пос. Залегощь;;2012;4;2016;304;;
242;03.09.2013;Скиба Виталия Константиновна;ж;ИУПЭиС;2;8-917-550-75-51;Пр.-3;Заселён;;бюджет;очная;г. Глазов;;2012;4;2016;314;;
243;04,09,2013;Шумейко Юлия Александровна;ж;ИМ;1;89853551105;Пр.-3;Заселён;;бюджет;очная;г. Урюпинск Волгоградская обл.;;2013;4;2017;332;;
244;04,09,2013;Конончук Тимофей Александрович;м;;2;;Пр.-3;Заселён;;;;Алтайский край, г. Бийск;;2012;4;2016;334;;
245;05,09,2013;Шикалова Анастасия Андреевна;ж;ИИСУ;1;8-916-762-56-93;Пр.-3;Заселён;отличница;бюджет;очная;Ульяновская область, станция Коптевка;;2013;4;2017;337;;
246;05.09.2013;Карпова Мария Алексеевна;ж;ИУПСС;1;89296059935;Пр.-3;Заселён;многодетная, малообеспеченная;бюджет;очная;Оренбургская обл., п. Красногвардеец;;2013;4;2017;344;;
247;06.09.2013;Вебер Валерия Вячеславовна;ж;ИМ;1;89036676246;Пр.-3;Заселён;;бюджет;очная;г. Омск;;2013;4;2017;351;;
248;09.09.2013;Хоботкова Анна Игоревна;ж;ИУФИНА;3;89163104234;Пр.-3;Заселён;;бюджет;очная;г. Воскресенск;;2011;4;2015;357;;
249;12.09.2013;Лиджиева Булгун Эрдниевна ;ж;ИИУЭ;1;89263061142;Пр.-3;Заселён;малоимущая;;;г. Элиста;;;;;367;;
250;13.09.2013;Золовкина Юлия Вадимовна;ж;ИИСУ;1;89150133553;Пр.-3;Заселён;;бюджет;очная;г. Хотьков;;2013;4;2013;371;;
251;13.09.2013;Воллерт Елизавета Владимировна;ж;ИУПЭС;1;;Пр.-3;Заселён;;;;;;;;;374;;
252;13.09.2013;Чибисова София Юрьевна;ж;ИУТИТиМБ;2;8-915-037-41-40;Пр.-3;Заселён;;;;МО, г. Электрогорск;;2012;4;2016;379;;
253;24.10.2013;Трушникова Кристина  Александровна;ж;ИУПЭС;1;8-965-240-60-61;Пр.-3;Заселён;;бюджет;очная;г. Пятигорск;;;;;393;;
254;24.10.2013;Колпакова Валерия Сергеевна;ж;ИУПЭС;3;8-929-594-53-64;Пр.-3;Заселён;;бюджет;Очная;МО, г. Серпухов;;;;;394;;
255;26.09.2013;Карпенко Данил Александрович;ж;ИУПЭС;1;8-915-741-85-80;Пр.-3;Заселён;;договор;очная;г. Тверь;;2013;4;2017;395;;
256;27.08.2013;Зангиев Акромат Тимурович;м;ИУФиНА;2;8-961-780-78-05;Пр.-4;Заселен;малоимуща, инвалид;бюджет;очная;респ. Игушетия, г. Назрань;;2012;4;2016;215;;
257;25.10.2011;Болкова Юлия Сергеевна;ж;ИГУиП;3;8-967-284-93-56;Пр-5;Заселён;;договор;очная;МО, с. Узуково;;2011;4;2015;есть;;
258;31.08.2011;Дегтярева Алина Юрьевна;ж;ИУФиНА;3;8-963-652-99-09;Пр-5;Заселён;;договор;очная;г.Сочи;;2011;4;2015;есть;;
259;25.08.2011;Очирова Амуланга Евгеньевна;ж;ИУФиНА;3;8-925-072-55-92;Пр-5;Заселён;;бюджет;очная;респ. Калмыкия, п. Привольный;;2011;4;2015;;;
260;07.09.2012;Шамсиева Гузель Рафиковна;ж;ИУТИТиМБ;2;8-916-652-89-71;Пр-5;Заселён;;бюджет;очная;г.Нефтекамск;;2012;4;2016;есть;;
261;26.08.2013;Буданова Елизавета Игоревна;ж;ИУПСС;1;8-985-351-72-05;Пр-5;Заселён;;бюджет;очная;Московская обл., г. Ступино;;2013;4;2017;99;;
262;26.08.2013;Чечельницкая Светлана Игоревна;ж;ИУФиНА;1;8-905-147-37-75;Пр-5;Заселён;;бюджет;очная;г. Владимир;;2013;4;2017;120;;
263;26.08.2013;Кравцова Мария Андреевна;ж;ИУПСС;1;8-919-865-39-57;Пр-5;Заселён;;бюджет;очная;г. Оренбург;;2013;4;2017;148;;
264;26.08.2013;Аксенова Наталья Андреевна;ж;ИИУЭ;1;8-953-189-43-96;Пр-5;Заселён;;бюджет;очная;г. Тула;;2013;4;2017;166;;
265;26.08.2013;Стручкова анастасия Николаевна;ж;ИУПЭис;1;8-916-013-25-22;Пр-5;Заселён;;бюджет;очная;Пензенская обл., р. п. Земетчино;;2013;4;2017;172;;
266;26.08.2013;Дмитриева Диана Сергеевна;ж;ИГУиП;1;8-906-530-12-71;Пр-5;Заселён;;бюджет;очная;Тульская обл., г. Венев;;2013;4;2017;177;;
267;26.08.2013;Кожомина Карина Васильевна;ж;ИУПЭиС;1;8-926-955-18-23;Пр-5;Заселён;;бюджет;очная;Брянская обл., пос. Комаричи;;2013;4;2017;178;;
268;27.08.2013;Казминова Алина Юрьевна;ж;ИМ;1;8-909-758-56-76;Пр-5;Заселён;;бюджет;очная;Ставропольский край, с. Арзгир;;2013;4;2017;183;;
269;27.08.2013;Козлова анастасия Феликсовна;ж;ИУТИТиМБ;1;8-927-490-56-28;Пр-5;Заселён;;бюджет;очная;респ. Татарстан, г. Набережные Челны;;2013;4;2017;186;;
270;27.08.2013;Маркова Юлия Сергеевна;ж;ИУТИТиМБ;1;8-915-371-70-59;Пр-5;Заселён;;бюджет;очная;Нижегородская обл., г. Выкса;;2013;4;2017;212;;
271;28.08.2013;Работкина Екатерина Андреевна;ж;ИМ;1;8-927-102-25-78;Пр-5;Заселён;;бюджет;очная;Саратовская обл., гор. Балаково;;2013;4;2017;222;;
272;28.08.2013;Грузинская Анастасия Юрьевна;ж;ИИУЭ;1;8-985-155-64-58;Пр-5;Заселён;;бюджет;очная;МО, д. Александровка;;2013;4;2017;226;;
273;28.08.2013;Кашаева Евгения Вячеславовна;ж;ИУПЭиС;1;8-916-176-97-65;Пр-5;Заселён;;бюджет;очная;МО, г. Коломна;;2013;4;2017;228;;
274;28.08.2013;Немцова Виктория Викторовна;ж;ИУФиНА;1;8-920-499-58-25;Пр-5;Заселён;;бюджет;очная;Тамбовская обл., р.п.Новая Ляда;;2013;4;2017;236;;
275;29.08.2013;Семененко Мария Максимовна;ж;ИУПСС;1;8-915-496-15-58;Пр-5;Заселён;;бюджет;очная;Кемеровская обл., г. Новокузнецк;;2013;4;2017;248;;
276;29.08.2013;Отарова Альбина Маликовна;ж;ИУФиНА;1;8-925-726-55-63;Пр-5;Заселён;;бюджет;очная;респ. Кабардино-Балкария, г. Нальчик;;2013;4;2017;257;;
277;29.08.2013;Очирова Иляна Юрьевна;ж;ИИУЭ;1;8-937-190-42-77;Пр-5;Заселён;;бюджет;очная;респ. Калмыкия, Юстинский р-н, с. Цаган Аман;;2013;4;2017;258;;
278;30.08.2013;Горячева Яна Витальевна;ж;ИИУЭ;1;8-916-685-61-27;Пр-5;Заселён;;бюджет;очная;респ. Кабардино-Балкария, г. Прохладный;;2013;4;2017;287;;
279;30.08.2013;Уютова Ирина Павловна;ж;ИУТИТиМБ;1;8-925-269-82-06;Пр-5;Заселён;;бюджет;очная;Пензенская обл., г. Сердобск;;2013;4;2017;292;;
280;02.09.2013;Клейман Юлия Алексан;ж;ИУПСС;1;8-917-558-52-30;Пр-5;Заселён;;бюджет;очная;г. Сергиев Посад;;2013;4;2017;307;;
281;02.09.2013;Михайлова Елена Васильевна;ж;ИИУЭ;1;89603012790;Пр-5;Заселён;;бюджет;очная;Чувашия, Канаш;;2013;4;2017;310;;
282;02.09.2013;Абдулгалимова Фаина Тажибовна;ж;ИУФиНА;1;8-925-260-68-98;Пр-5;Заселён;;договор;очная;Пятигорск;;2013;4;2017;312;;
283;03.09.2013;Сафронова Наталья Андреевна;ж;ИИУЭ;1;8-916-299-63-01;Пр-5;Заселён;;бюджет;очная;Пензенская обл., Вадинский район с. Ягоновка;;2013;4;2017;319;;
284;03.09.2013;Бондарева Татьяна Алексеевна;ж;ИИУЭ;1;8-916-652-66-69;Пр-5;Заселён;;бюджет;дневная;МО, Воскресенский р-н., д. Чемодурово;;2013;4;2017;320;;
285;04,09,2013;Грачева Ульяна Сергеевна;ж;ИУТИТиМБ;1;89671339044;Пр-5;Заселён;;бюждет;очная;г. Рошаль;;2013;4;2017;328;;
287;05.09.2013;Метжанова Татьяна Валентиновна ;ж;ИУФиНА;1;8-916-366-33-94;Пр-5;Заселён;;бюджет;очная;г. Щелково, М.О;;2013;4;2017;341;;
288;05.09.2013;Рубцова Марина Юрьевна;ж;ИУФиНА;1;8-968-8627044;Пр-5;Заселён;;бюджет;очная ;Чувашская республика, п. Полевые Яуши;;2013;4;2017;342;;
289;05.09.2013;Лаврентьева Диана Юрьевна ;ж;ИУТИТиМБ;1;8-9625993712;Пр-5;Заселён;;бюджет;очная ;г. Чебоксары ;;2013;4;2017;343;;
290;06.09.2013;Петрова Полина Федоровна;ж;ИУТИТиМБ;1;89295986609;Пр-5;Заселён;;бюджет;очная;г. Электрогорск, М.О.;;2013;4;2017;348;;
291;09.09.2013;Николаева Ксения Сергеевна;ж;ИИУЭ;1;89670868995;Пр-5;Заселён;;бюджет;очная;г. Саратов;;2013;4;2017;354;;
292;10.09.2013;Деменева Мария Евгеньевна;ж;ИУФиНА;1;8951360568;Пр-5;Заселён;;бюджет;очная;МО, Мещерино-1;;2013;4;2015;360;;
293;13.09.2013;Мыльникова Дарья Александровна;ж;РГФМ ;1;8-906-738-73-08;Пр-5;Заселён;;договор;;г. Сергиев-Посад;;;;;377;;
294;24.10.2013;Непомнящая Полина Григорьевна;ж;ИМ;3;8-915-243-21-25;Пр-5;Заселён;;бюджет;очная;г. Курчатов, Курская область;;2011;5;2016;396;;
295;28.08.2013;Кашаева Екатерина Сергеевна ;ж;ИУПЭиС;1;8-916-938-81-33;Пр-5;Заселён;;бюджет;очная;МО, г. Коломна;;2013;4;2017;229;;
296;28.08.2013;Дубатолова Валерия Владимировна ;ж;ИУПЭиС;1;8-925-883-52-79;Пр-5;Заселён;;бюджет;очная;г. Новосибирск;;2013;4;2017;231;;
297;09.09.2013;Кожинова Елизавета Андреевна;ж;ИУПЭС;3;89851320179;Пр-5;Заселён;;бюджет;очная;г. Воскресенск;;2011;4;2015;356;;
298;26.08.2013;Чулкова Ирина Николаевна;ж;ИУТИТиМБ;1;8-915-072-08-89;Пр-5;Заселён;;договор;очная;Тамбовская обл., г. Уварово;;2013;4;2017;118;есть;
299;26.08.2013;Епифанов Илья Сергеевич;м;ИУПЭиС;1;8-909-926-56-49;Пр-5;Заселён;;бюджет;очная;МО., г. серпухов;;2013;4;2017;104;;
300;26.08.2013;Антуфьев Алексей Андреевич;м;ИУПЭиС;1;8-915-467-21-66;Пр-5;Заселён;;бюджет;очная;МО, Орехово-Зуевский р-н, д. Губино;;2013;4;2017;110;;
301;26.08.2013;Карязов Руслан Рамешевич;м;ИИСУ;1;8-925-129-81-60;Пр-5;Заселён;;бюджет;очная;Пензенская обл., г. Кузнецк;;2013;4;2017;119;;
302;26.08.2013;Бородин Данила Александрович;м;ИУТИТиМБ;1;8-915-305-32-55;Пр-5;Заселён;;договор;очная;МО, г. Коломна;;2013;4;2017;125;;
303;26.08.2013;Соловьев Станислав Константинович;м;ИУФиНА;1;8-916-062-01-27;Пр-5;Заселён;;бюджет;очная;Белгородская обл., пос. Дубовое;;2013;4;2017;135;;
304;26.08.2013;Логинов Дмитрий Алексеевич;м;ИИУЭ;1;8-919-763-60-42;Пр-5;Заселён;;договор;очная;МО, г. Дубна;;2013;4;2017;146;;
305;26.08.2013;Монетов Александр Владимирович;м;ИУФиНА;2;8-915-188-04-35;Пр-5;Заселён;;бюджет;очная;г. Коломна;;2012;4;2016;167;;
306;26.08.2013;Юрченко Александр Андреевич;м;ИИУЭ;1;8-912-737-36-59;Пр-5;Заселён;;бюджет;очная;г. Киров;;2013;4;2017;170;;
307;26.08.2013;Козиен  Козиходжа Матлубиддини;м;ИУПЭиС;1;8-925-834-56-59;Пр-5;Заселён;;бюджет;очная;м. Ворух Исфаринского р-на на Ленинабадской обл.;;2013;4;2017;179;;
308;27.08.2013;Жуков Павел Юрьевич;м;ИУПЭиС;1;8-968-514-61-04;Пр-5;Заселён;;договор;очная;МО, г. Рошаль;;2013;4;2017;193;;
309;27.08.2013;Угандеев Никита Евгеньевич;м;ИИУЭ;1;8-929-598-10-31;Пр-5;Заселён;;бюджет;очная;Чувашская респ., г. Чебоксары;;2013;4;2017;194;;
310;27.08.2013;Шишканов Роман Сергеевич;м;ИИУЭ;1;8-951-695-50-84;Пр-5;Заселён;;бюджет;очная;Смоленская обл., г. Смоленск;;2013;4;2017;203;;
311;28.08.2013;Иванов Кирилл Владимирович ;м;ИУПЭиС;1;8-919-017-19-19;Пр-5;Заселён;;бюджет;очная;г. Владимир;;2013;4;2017;232;;
312;29.08.2013;Лимаренко Богдан Сергеевич;м;ИМ;1;8-918-483-29-71;Пр-5;Заселён;;бюджет;очная;Краснодарский край, г. Новороссийск;;2013;4;2017;253;;
313;30.08.2013;Мозолев Александр Романович;м;ИИУЭ;1;8-916-921-24-55;Пр-5;Заселён;;бюджет;очная;Архангельская обл., г. Северодвинск;;2013;4;2017;302;;
314;03.09.2013;Кожевников Иван Дмитриевич;м;ИУТИТиМБ;1;8-925-316-39-11;Пр-5;Заселён;;договор;очная;г. Электросталь;;2013;4;2017;316;;
315;03.09.2013;Амян Рафаэл Сергеевич;м;ИИУЭ;1;8-926-000-66-71;Пр-5;Заселён;;бюджет;очная;Ставропольский край  г.Михайловск;;2013;4;2017;318;;
316;05,09,2013;Аксаев Евгений Александрович;м;ИУТИТиМБ;1;8-906-701-80-93;Пр-5;Заселён;;договор;очная;г. Дмитров;;2013;4;2017;335;;
317;18.02.2013;Бойко Артем Владимирович;м;ИУТИТиМБ;2;8-916-881-72-41;Пр-5;заселён;;договор;очная;г. Сочи;;2012;4;2016;есть;;
318;10.04.2013;Лошкарев Антон Вадимович;м;ИУПЭС;2;8-925-262-97-69;Пр-5;заселён;;бюджет;очная;МО, Орехово-Зуевский р-н, д. Малая Рубна;;2012;4;2016;есть;;
319;12.10.2012;Корниенко Виктория Андреевна;ж;ИИСУ;;8-916-299-04-19;Пр-5;Заселён;;договор;очная;;;2012;4;2016;есть;;
320;24.10.2013;Гореликова Юлия Александровна ;ж;ИИСУ;2;8-916-115-07-29;Пр-5;заселён;;бюджет;очная;МО, г. Балашиха;;2012;4;2016;;;
321;24.10.2013;Шомадов Камол Акрамович;ж;ИИСУ;1;8-926-599-70-39;Пр-5;Заселён;;договор;очная;г.Тамбов;;2013;4;2017;;;
322;24.10.2013;Андрианов Михаил Александр ;м;ИУПСС;2;8-915-298-69-61;Пр-5;Заселён;;бюджет;очная;МО г. Электросталь ;;2012;4;2016;401;;
323;29.08.2013;Оздоев Шахмарза Махмуд-Баширович;м;;1;8-928-746-58-72;Пр-1;Заселён;;бюджет;очная;г. Назрань, Республика Ингушетия;;2013;4;2017;267;;
324;26.08.2013;Шкуренкова Марина Андреевна;ж;;1;8-953-283-25-47;Ст-61;Заселён;;;;Брянская обл., г. Клинцы;;2013;4;2017;144;;
325;13.09.2012;Абаляева Екатерина Романовна;ж;ИУТИТиМБ;2;8-916-146-97-31;Пр-6;Заселён;;договор;очная;г.Владимир;;2012;4;2016;есть;;
338;04.09.2012;Климова Ирина Александровна;ж;ИИУЭ;2;8-916-096-91-88;Пр-6;Заселён;;договор;очная;с.Репное;;2012;4;2016;есть;;
346;04.09.2012;Морозова Анастасия Дмитриевна;ж;ИУТИТиМБ;2;8-985--439-09-83;Пр-6;Заселён;;договор;очная;г.Петушки;;2012;4;2016;есть;;
352;25.08.2011;Солодун Татьяна Николаевна;ж;ИУТИТиМБ;3;8-906-565-91-51;Пр-6;Заселён;;договор;очная;Белгородская обл., г.Старый оскол;;2011;4;2015;есть;;
355;29.08.2012;Чаниев Ахмед Русланович;м;ИГУиП;3;8-967-223-22-11;Пр-6;Заселён;многодетная,малоимущая;бюджет;очная;ст.Нестеровская Республика Ингушетия;;2011;4;2015;есть;;
356;29.08.2012;Чаниев Магомед Русланович;м;ИИУЭ;4;8-925-309-06-06;Пр-6;Заселён;многодетная,малоимущая;бюджет;очная;ст.Нестеровская Республика Ингушетия;;2010;5;2015;есть;;
375;26.08.2013;Темирбиев Темирлан Русланович;м;ИМ;1;8-965-255-33-95;Пр-6;Заселён;;бюджет;очная;респ. Ингушетия, г. Малгобек;;2013;4;2017;145;есть;
376;26.08.2013;Усатова Аминат Валерьевна;ж;ИУФиНА;1;8-926-165-93-08;Пр-6;Заселён;;договор;очная;Кабардино-Балкарская респ., г. Нальчик;;2013;4;2017;149;есть;
378;26.08.2013;Ткачева Татьяна Дмитриевна;ж;ИГУиП;1;8-968-354-36-90;Пр-6;Заселён;;договор;очная;Амурская обл., г. Благовещенск;;2013;4;2017;174;есть;
379;26.08.2013;Пирумян Тигран Варданович;м;ИГУиП;3;8-967-274-47-29;Пр-6;Заселён;;договор;очная;г. Воронеж;;2011;4;2015;175;есть;
380;27.08.2013;Макян Давид Самвелович;м;ИУТИТиМБ;1;8-905-133-93-39;Пр-6;Заселён;;договор;очная;Ярославская обл., г. Переславль;;2013;4;2017;198;есть;
381;27.08.2013;Аниканова Анна Алексеевна;ж;ИУТИТиМБ;1;8-905-636-08-68;Пр-6;Заселён;;договор;очная;Ярославская обл., г. Переславль;;2013;4;2017;200;есть;
385;29.08.2013;Саидов Халил Ахмедович;м;ИИУЭ;1;8-968-793-71-82;Пр-6;Заселён;отец инвалид,;бюджет;очная;г. Махачкала;;2013;4;2017;256;есть;
386;30.08.2013;Ёлкина Анастасия Андреевна;ж;ИУФиНА;1;8-916-362-89-81;Пр-6;Заселён;;договор;очная;респ.Татарстан, г. Альметьевск;;2013;4;2017;284;есть;
387;30.08.2013;Ахильгов Ахмед Макшарипович;м;ИГУиП;1;8-915-317-13-89;Пр-6;Заселён;малоимущая, письмо;бюджет;очная;респ. Ингушетия, г. Малгобек;;2013;4;2017;290;есть;
388;30.08.2013;Мелешкина Анастасия Валерьевна;ж;ИИУЭ;1;8-905-051-65-15;Пр-6;Заселён;;договор;очная;г. Воронеж;;2013;4;2017;294;есть;
389;02.09.2013;Ганаев Ахмад Асланович;м;ИГУиП;1;8-929-595-50-28;Пр-6;Заселён;;договор;очная;Чечня, г. Моздок;;2013;4;2017;309;есть;
397;24.10.2013;Юхно Анастасия Михайловна;ж;ИИУЭ;2;8-968-878-04-72;Пр-6;Заселён;;договор;очная;г. Ярославль ;;2012;4;2016;400;есть;
398;24.10.2013;Черноусова Василика Евгеньевна;ж;ИУТИТиМБ;1;8-925-264-55-57;Пр-6;Заселён;;договор;очная;г. Тюльган;;2013;4;2017;399;есть;
399;12.09.2013;Андрианов Вячеслав Михайлович;м;ИУПСС;;89099325243;Пр-6;Заселён;;бюджет;;г. Пересвет, МО.;;;;;366;есть;
400;24.10.2013;Чивкина Екатерина Евгеньевна;ж;ИГУиП;1;8-915-195-45-36;Пр-6;Заселён;;бюджет;очная;Пензенская обл., с. Вадинск;;2013;4;2017;402;есть;
401;24.10.2013;Шепелева Кристина Сергеевна ;ж;;1;8-915-720-19-85;Пр-6;Заселён;сирота;бюджет;очная;г. Тверь;;2013;4;2017;;;
331;31.08.2012;Гущина Юлия Александровна;ж;ИГУиП;2;8-919-073-70-70;Пр-6;Заселён;;договор;очная;г.Тула;;2012;4;2016;есть;;
157;12.05.2014;Зинченко Ирина Евгеньевна;ж;ИМ;1;968-928-03-43;Пр-7 ;Заселён;;договор;очная;Республика Калмыкия, г. Элиста ;;2013;4;2017;404;;
158;12.05.2014;Киселев Максим Альберович ;м;ИМ;1;903-009-94-58;Пр-7 ;Заселён;;договор;очная;Г. Кимры, Тверская область;;2013;4;2017;405;;
159;12.05.2014;Сержантов Анатолий Александрович ;м;ИМ;1;929-639-91-86;Пр-7 ;Заселён;;бюджет;очная;г.Чебоксары, Чувашская респ.;;2013;4;2017;406;;
160;12.05.2014;Селивёрстова Алёна Сергеевна;ж;ИМ;1;926-869-27-95;Пр-7 ;Заселён;;бюджет;очная;г. Тамбов, Тамбовская область;;2013;4;2017;407;;
161;12.05.2014;Фирсова Кристина Евгеньевна;ж;ИУФиНА;2;985-204-75-34;Пр-7 ;Заселён;;бюджет;очная;с. Нагорье, Ярославская обл.;;2012;4;2016;408;;
162;12.05.2014;Сорокин Александр Игоревич;м;ИИСУ;2;916-867-16-81;Пр-7 ;Заселён;;бюджет;очная;г. Бронницы;;2012;4;2016;409;;
163;12.05.2014;Равилова Рената Шамилевна ;ж;ИУПЭС;1;917-505-95-65;Пр-7 ;Заселён;;бюджет;очная;г. Уфа;;2013;4;2017;410;;
164;12.05.2014;Мостаков Евгений Николаевич ;м;ИУПЭС;3;926-667-26-14;Пр-7 ;Заселён;;договор;очная;Чувашская респ., Чебоксарский р-он.;;2011;4;2015;411;;
165;12.05.2014;Тепляков Александр Константинович;м;ИУПЭС;2;925-131-24-04;Пр-7 ;Заселён;;договор;очная;МО., Орехово-Зуево;;2012;4;2016;412;;
166;12.05.2014;Масленниеоа Светлана Алексеевна;ж;ИУПЭС;3;915-269-64-09;Пр-7 ;Заселён;;бюджет;очная;МО., Сергиев Посад;;2011;4;2015;413;;
167;12.05.2014;Мирсанова Виктория Олеговна;ж;ИУТИТиМБ;4;915-088-65-51;Пр-7 ;Заселён;;бюджет;очная;г.о. Железнодорожный, МО;;2010;5;2015;414;;
168;12.05.2014;Чеканихина Анастасия Григорьевна ;ж;ИУТИТиМБ;2;985-277-52-23;Пр-7 ;Заселён;;бюджет;очная;г. Одинцово, МО;;2012;4;2016;415;;
169;12.05.2014;Сломова Алена Евгеньевна;ж;ИУТИТиМБ;2;926-248-90-30;Пр-7 ;Заселён;;бюджет;очная;Ейск, Краснодарский край;;2012;4;2016;416;;
170;12.05.2014;Будникова Яна Сергеевна ;ж;ИУТИТиМБ;1;905-525-48-24;Пр-7 ;Заселён;;договор;очная;Калужская область;;2013;4;2017;417;;
171;12.05.2014;Дурасова Ирина Вячеславовна ;ж;ИУТИТиМБ;1;967-095-01-80;Пр-7 ;Заселён;;договор;очная;Калужская область;;2013;4;2017;418;;
172;12.05.2014;Коваль Анастасия Олеговна;ж;ИУТИТиМБ;1;925-001-18-74;Пр-7 ;Заселён;;бюджет;очная;г. Воскресенск;;2013;4;2017;419;;
173;12.05.2014;Филимонова Анастасия Сергеевна ;ж;ИУПСС;1;915-291-26-71;Пр-7 ;Заселён;;бюджет;очная;г. Чебоксары;;2013;4;2017;420;;
174;12.05.2014;Абелян Эдгар Размикович ;м;ИУПСС;1;925-004-85-00;Пр-7 ;Заселён;Повтор. Заселён по Пр-6;договор;очная;МО, пос. Брикет;;2013;4;2017;421;;
175;12.05.2014;Голубев Артём Владимирович ;м;ИУПСС;4;926-336-22-99;Пр-7 ;Заселён;;договор;очная;г. Ногинск, МО;;2010;5;2015;422;;
176;12.05.2014;Глянцева Наталья Александровна;ж;ИУПСС;1;985-257-22-94;Пр-7 ;Заселён;;бюджет;очная;Ростовская обл.;;2013;4;2017;423;;
177;12.05.2014;Карачевцева Инна Сергеевна;ж;ИУПСС;2;985-223-85-35;Пр-7 ;Заселён;;бюджет;очная;г. Губкин, Белгородская обл.;;2013;4;2017;424;;
178;12.05.2014;Никитина Анна Михайловна ;ж;ИУФиНА;2;909688-28-65;Пр-7 ;Заселён;;договор;очная;г. Чехов, МО;;2012;4;2016;425;;
179;12.05.2014;Бесолова Сабина Эльбрусовна;ж;ИУФиНА;1;965-242-36-31;Пр-7 ;Заселён;;бюджет;очная;г. Владикавказ;;2013;4;2017;426;;
180;12.05.2014;Теймуров Самрр Сеймурович;м;ИГУиП;1;9252230878;Пр-7 ;Заселён;;договор;очная;г. Сургут;;2013;4;2017;427;;
181;12.05.2014;Кацан Виктория Валерьевна ;ж;ИГУиП;1;925-367-07-88;Пр-7 ;Заселён;;договор;очная;г.Химки;;2013;4;2017;428;;
182;12.05.2014;Трушкина Алина Викторовна;ж;ИУПСС;3;920-060-72-13;Пр-7 ;Заселён;;договор;очная;г. Выска ;;2012;4;2016;429;;
183;12.05.2014;Кондакова Елена Владимировна;ж;ИУПСС;3;910-448-15-20;Пр-7 ;Заселён;;бюджет;очная;г. Воскреенск;;2012;4;2016;430;;
184;12.05.2014;Разина Дарья Алексеевна;ж;ИГУиП;4;926-437-28-44;Пр-7 ;Заселён;;договор;очная;Нижегородская обл.;;2010;5;2015;431;;
185;12.05.2014;Райныш Мария  Александровна ;ж;ИУПЭС;3;967-194-41-46;Пр-7 ;Заселён;;договор;очная;г. Шатура;;2011;4;2015;432;;
186;15.05.2014;Новенников Роман Михайлович ;м;ИИУЭ;1;905-165-65-03;Пр-7 ;Заселён;;договор;очная;г.Тверь;;2013;4;2014;433;;
187;15.05.2014;Семенков Илья Андреевич;м;ИИУЭ;2;915-083-26-58;Пр-7 ;Заселён;;договор;очная;;;2012;4;2016;434;;
188;15.05.2014; Султанмеджидова Насыра Мурадовна ;ж;ИИУЭ;1;967-028-01-01;Пр-7 ;Заселён;;договор;очная;Респ. Дагестан;;2013;4;2017;435;;
189;15.05.2014;Горенко Всеволод Растиславович ;м;ИИУЭ;1;985-973-52-31;Пр-7 ;Заселён;;бюджет;очная;г. Тверь;;2013;4;2017;436;;
190;15.05.2014;Попова Кристина Александровна;ж;ИИУЭ;1;968-076-59-00;Пр-7 ;Заселён;;договор;очная;г. Хабаровск;;2013;4;2017;437;;
191;15.05.2014;Уларджич Снежана Бриславовна;ж;ИИУЭ;1;965-358-84-3;Пр-7 ;Заселён;;договор;очная;г. Старый Оскол;;2013;4;2017;438;;
192;15.05.2014;Хайбулина София Тимуровна;ж;ИИСУ;1;965-229-22-87;Пр-7 ;Заселён;;бюджет;очная;г. Пушкино, МО;;2013;4;2017;439;;